<?xml version="1.0" encoding="UTF-8"?>
<svg width="204px" height="253px" viewBox="0 0 204 253" version="1.1" xmlns="http://www.w3.org/2000/svg" xmlns:xlink="http://www.w3.org/1999/xlink">
    <!-- Generator: Sketch 49 (51002) - http://www.bohemiancoding.com/sketch -->
    <title>Slice 1</title>
    <desc>Created with Sketch.</desc>
    <defs>
        <linearGradient x1="35.4804688%" y1="96.0394291%" x2="65.4511719%" y2="-15.7251673%" id="linearGradient-1">
            <stop stop-color="#1B7FEE" offset="0%"></stop>
            <stop stop-color="#18EABF" offset="85.6839689%"></stop>
            <stop stop-color="#03FBB7" offset="100%"></stop>
        </linearGradient>
        <path d="M2,222.34375 L11.3828125,192.761719 L23.8121504,231.919251 L36.9349739,204.582792 L49.2540497,215.168408 L62.6332496,175.547872 C67.6736676,177.912521 71.154048,179.47619 73.0743911,180.238879 C74.9947341,181.001568 81.3032704,192.644745 92,215.168408 L139.839844,94.125 L148.75,109.941406 L192.496094,10.3984375" id="path-2"></path>
        <filter x="-5.6%" y="-4.9%" width="115.5%" height="118.3%" filterUnits="objectBoundingBox" id="filter-3">
            <feMorphology radius="0.25" operator="dilate" in="SourceAlpha" result="shadowSpreadOuter1"></feMorphology>
            <feOffset dx="5" dy="16" in="shadowSpreadOuter1" result="shadowOffsetOuter1"></feOffset>
            <feMorphology radius="0.25" operator="erode" in="SourceAlpha" result="shadowInner"></feMorphology>
            <feOffset dx="5" dy="16" in="shadowInner" result="shadowInner"></feOffset>
            <feComposite in="shadowOffsetOuter1" in2="shadowInner" operator="out" result="shadowOffsetOuter1"></feComposite>
            <feGaussianBlur stdDeviation="2.5" in="shadowOffsetOuter1" result="shadowBlurOuter1"></feGaussianBlur>
            <feColorMatrix values="0 0 0 0 0   0 0 0 0 0   0 0 0 0 0  0 0 0 0.290732563 0" type="matrix" in="shadowBlurOuter1"></feColorMatrix>
        </filter>
        <circle id="path-4" cx="192" cy="10" r="8"></circle>
        <filter x="-43.8%" y="-31.2%" width="187.5%" height="187.5%" filterUnits="objectBoundingBox" id="filter-5">
            <feOffset dx="0" dy="2" in="SourceAlpha" result="shadowOffsetOuter1"></feOffset>
            <feGaussianBlur stdDeviation="2" in="shadowOffsetOuter1" result="shadowBlurOuter1"></feGaussianBlur>
            <feColorMatrix values="0 0 0 0 0   0 0 0 0 0   0 0 0 0 0  0 0 0 0.5 0" type="matrix" in="shadowBlurOuter1"></feColorMatrix>
        </filter>
    </defs>
    <g id="Page-1" stroke="none" stroke-width="1" fill="none" fill-rule="evenodd">
        <g id="Path-3" stroke-linecap="round" stroke-linejoin="round">
            <use fill="black" fill-opacity="1" filter="url(#filter-3)" xlink:href="#path-2"></use>
            <use stroke="url(#linearGradient-1)" stroke-width="2.5" xlink:href="#path-2"></use>
        </g>
        <g id="Oval-2">
            <use fill="black" fill-opacity="1" filter="url(#filter-5)" xlink:href="#path-4"></use>
            <use fill="#FFFFFF" fill-rule="evenodd" xlink:href="#path-4"></use>
        </g>
    </g>
</svg>