<?xml version="1.0" encoding="UTF-8"?>
<svg width="66px" height="69px" viewBox="0 0 66 69" version="1.1" xmlns="http://www.w3.org/2000/svg" xmlns:xlink="http://www.w3.org/1999/xlink">
    <!-- Generator: Sketch 49 (51002) - http://www.bohemiancoding.com/sketch -->
    <title>Feature Icon - Financial Performance 1</title>
    <desc>Created with Sketch.</desc>
    <defs></defs>
    <g id="Portals" stroke="none" stroke-width="1" fill="none" fill-rule="evenodd">
        <g id="Brand-Page" transform="translate(-766.000000, -5206.000000)">
            <g id="Feature-List" transform="translate(-22.000000, 4104.000000)">
                <g id="Financial-Performance" transform="translate(550.000000, 1075.000000)">
                    <g id="Feature-Icon---Financial-Performance" transform="translate(240.000000, 27.000000)">
                        <g id="Page-1">
                            <path d="M39.8477,4.7491 L39.8477,45.1161 C39.8477,47.7391 41.9737,49.8651 44.5967,49.8651 C47.2197,49.8651 49.3467,47.7391 49.3467,45.1161 L49.3467,4.7491 C49.3467,2.1261 47.2197,0.000100000001 44.5967,0.000100000001 C41.9737,0.000100000001 39.8477,2.1261 39.8477,4.7491" id="Fill-1" fill="#FFFFFF" opacity="0.3"></path>
                            <path d="M23.8199,14.2471 L23.8199,54.6141 C23.8199,57.2371 25.9459,59.3631 28.5689,59.3631 C31.1919,59.3631 33.3179,57.2371 33.3179,54.6141 L33.3179,14.2471 C33.3179,11.6241 31.1919,9.4981 28.5689,9.4981 C25.9459,9.4981 23.8199,11.6241 23.8199,14.2471" id="Fill-4" fill="#FFFFFF" opacity="0.3"></path>
                            <path d="M7.7916,23.7452 L7.7916,64.1122 C7.7916,66.7352 9.9176,68.8612 12.5406,68.8612 C15.1636,68.8612 17.2906,66.7352 17.2906,64.1122 L17.2906,23.7452 C17.2906,21.1222 15.1636,18.9962 12.5406,18.9962 C9.9176,18.9962 7.7916,21.1222 7.7916,23.7452" id="Fill-6" fill="#FFFFFF" opacity="0.3"></path>
                            <polyline id="Stroke-8" stroke="#FFFFFF" stroke-width="3.999" stroke-linecap="round" stroke-linejoin="round" points="-0.0004 41.9307 12.9996 46.9307 29.6976 29.6587 43.9996 33.9307 58.9996 12.9307"></polyline>
                            <path d="M63.6656,11.042 C64.5226,13.521 63.2076,16.226 60.7286,17.082 C58.2496,17.939 55.5456,16.625 54.6886,14.146 C53.8326,11.667 55.1466,8.963 57.6256,8.105 C60.1046,7.248 62.8086,8.563 63.6656,11.042" id="Fill-10" fill="#FFFFFF"></path>
                        </g>
                    </g>
                </g>
            </g>
        </g>
    </g>
</svg>