<?xml version="1.0" encoding="UTF-8"?>
<svg width="58px" height="66px" viewBox="0 0 58 66" version="1.1" xmlns="http://www.w3.org/2000/svg" xmlns:xlink="http://www.w3.org/1999/xlink">
    <!-- Generator: Sketch 49 (51002) - http://www.bohemiancoding.com/sketch -->
    <title>Feature Icon - Team Collaboration 1</title>
    <desc>Created with Sketch.</desc>
    <defs></defs>
    <g id="Portals" stroke="none" stroke-width="1" fill="none" fill-rule="evenodd" stroke-linecap="round" stroke-linejoin="round">
        <g id="Brand-Page" transform="translate(-1159.000000, -5208.000000)" stroke="#FFFFFF">
            <g id="Feature-List" transform="translate(-22.000000, 4104.000000)">
                <g id="Team-Collaboration" transform="translate(936.000000, 1075.000000)">
                    <g id="Feature-Icon---Team-Collaboration" transform="translate(246.000000, 33.000000)">
                        <g id="Page-1">
                            <path d="M33.8088,22.423 C33.8088,26.101 30.8778,29.082 27.2618,29.082 C23.6468,29.082 20.7158,26.101 20.7158,22.423 C20.7158,18.745 23.6468,15.763 27.2618,15.763 C30.8778,15.763 33.8088,18.745 33.8088,22.423 Z" id="Stroke-1" stroke-width="3.368"></path>
                            <path d="M53.6335,23.2062 C53.6335,26.4512 51.0475,29.0822 47.8565,29.0822 C44.6665,29.0822 42.0805,26.4512 42.0805,23.2062 C42.0805,19.9612 44.6665,17.3302 47.8565,17.3302 C51.0475,17.3302 53.6335,19.9612 53.6335,23.2062 Z" id="Stroke-3" stroke-width="3.368"></path>
                            <path d="M54.6935,43.9679 C54.6935,38.7739 50.0565,34.5669 44.3435,34.5669 C40.9635,34.5669 37.9545,36.0389 36.0645,38.3199" id="Stroke-5" stroke-width="3.368"></path>
                            <path d="M1.7443,23.2062 C1.7443,26.4512 4.3303,29.0822 7.5203,29.0822 C10.7113,29.0822 13.2973,26.4512 13.2973,23.2062 C13.2973,19.9612 10.7113,17.3302 7.5203,17.3302 C4.3303,17.3302 1.7443,19.9612 1.7443,23.2062 Z" id="Stroke-7" stroke-width="3.368"></path>
                            <path d="M19.3136,38.3194 C17.4226,36.0394 14.4146,34.5664 11.0336,34.5664 C5.3206,34.5664 0.6846,38.7734 0.6846,43.9674" id="Stroke-9" stroke-width="3.368"></path>
                            <path d="M16.9123,43.9679 C16.9123,38.7739 21.5493,34.5669 27.2623,34.5669 C32.9753,34.5669 37.6123,38.7739 37.6123,43.9679" id="Stroke-11" stroke-width="3.368"></path>
                            <path d="M12.9372,53.9269 C21.9412,58.8299 33.2952,58.7359 42.4652,52.7069" id="Stroke-13" stroke-width="8" opacity="0.3"></path>
                            <path d="M10.9211,4.7306 C21.1921,-2.0304 34.1901,-1.3354 43.5741,5.4846" id="Stroke-15" stroke-width="8" opacity="0.3"></path>
                        </g>
                    </g>
                </g>
            </g>
        </g>
    </g>
</svg>