<?xml version="1.0" encoding="UTF-8"?>
<svg width="1524px" height="1549px" viewBox="0 0 1524 1549" version="1.1" xmlns="http://www.w3.org/2000/svg" xmlns:xlink="http://www.w3.org/1999/xlink">
    <!-- Generator: Sketch 49 (51002) - http://www.bohemiancoding.com/sketch -->
    <title>Group</title>
    <desc>Created with Sketch.</desc>
    <defs></defs>
    <g id="Page-1" stroke="none" stroke-width="1" fill="none" fill-rule="evenodd">
        <g id="Group" transform="translate(-2.000000, 0.000000)">
            <g id="Dark-Data-BG-Tile" transform="translate(1411.000000, 740.000000)" fill="#1462B8" fill-opacity="0.200000018">
                <g transform="translate(49.000000, 53.500000) scale(-1, 1) translate(-49.000000, -53.500000) ">
                    <circle id="Combined-Shape" transform="translate(90.148785, 53.232189) rotate(121.000000) translate(-90.148785, -53.232189) " cx="90.1487854" cy="53.2321895" r="5"></circle>
                    <circle id="Oval-12-Copy" cx="69.953797" cy="53.1028337" r="5"></circle>
                    <circle id="Oval-12-Copy-3" cx="47.9571477" cy="53.4867866" r="5"></circle>
                    <circle id="Oval-12-Copy-4" cx="26.9603461" cy="53.8532872" r="5"></circle>
                    <circle id="Oval-12-Copy-5" cx="5.96354452" cy="54.2197877" r="5"></circle>
                    <circle id="Oval-12-Copy" cx="69.5349393" cy="29.106489" r="5"></circle>
                    <circle id="Oval-12-Copy-3" cx="47.53829" cy="29.4904419" r="5"></circle>
                    <circle id="Oval-12-Copy-4" cx="26.5414884" cy="29.8569425" r="5"></circle>
                    <circle id="Oval-12-Copy-3" cx="47.7950155" cy="101.496928" r="5"></circle>
                    <circle id="Oval-12-Copy-3" cx="48.1192799" cy="5.47664485" r="5"></circle>
                    <circle id="Oval-12-Copy" cx="70.3726548" cy="77.0991784" r="5"></circle>
                    <circle id="Oval-12-Copy-3" cx="48.3760055" cy="77.4831313" r="5"></circle>
                    <circle id="Oval-12-Copy-4" cx="27.3792039" cy="77.8496318" r="5"></circle>
                </g>
            </g>
            <circle id="Oval-6" fill="#C5DEFA" cx="1395" cy="169" r="131"></circle>
            <circle id="Oval-6-Copy" fill="#C5DEFA" cx="237.5" cy="1382.5" r="166.5"></circle>
            <g id="Dark-Data-BG-Tile" transform="translate(98.000000, 0.000000)" fill="#1462B8" fill-opacity="0.200000018">
                <g transform="translate(49.000000, 53.500000) scale(-1, 1) translate(-49.000000, -53.500000) ">
                    <circle id="Combined-Shape" transform="translate(90.148785, 53.232189) rotate(121.000000) translate(-90.148785, -53.232189) " cx="90.1487854" cy="53.2321895" r="5"></circle>
                    <circle id="Oval-12-Copy" cx="69.953797" cy="53.1028337" r="5"></circle>
                    <circle id="Oval-12-Copy-3" cx="47.9571477" cy="53.4867866" r="5"></circle>
                    <circle id="Oval-12-Copy-4" cx="26.9603461" cy="53.8532872" r="5"></circle>
                    <circle id="Oval-12-Copy-5" cx="5.96354452" cy="54.2197877" r="5"></circle>
                    <circle id="Oval-12-Copy" cx="69.5349393" cy="29.106489" r="5"></circle>
                    <circle id="Oval-12-Copy-3" cx="47.53829" cy="29.4904419" r="5"></circle>
                    <circle id="Oval-12-Copy-4" cx="26.5414884" cy="29.8569425" r="5"></circle>
                    <circle id="Oval-12-Copy-3" cx="47.7950155" cy="101.496928" r="5"></circle>
                    <circle id="Oval-12-Copy-3" cx="48.1192799" cy="5.47664485" r="5"></circle>
                    <circle id="Oval-12-Copy" cx="70.3726548" cy="77.0991784" r="5"></circle>
                    <circle id="Oval-12-Copy-3" cx="48.3760055" cy="77.4831313" r="5"></circle>
                    <circle id="Oval-12-Copy-4" cx="27.3792039" cy="77.8496318" r="5"></circle>
                </g>
            </g>
            <g id="Dark-Data-BG-Tile" transform="translate(54.000000, 70.000000)" fill="#1462B8" fill-opacity="0.200000018">
                <g transform="translate(49.000000, 53.500000) scale(-1, 1) translate(-49.000000, -53.500000) ">
                    <circle id="Combined-Shape" transform="translate(90.148785, 53.232189) rotate(121.000000) translate(-90.148785, -53.232189) " cx="90.1487854" cy="53.2321895" r="5"></circle>
                    <circle id="Oval-12-Copy" cx="69.953797" cy="53.1028337" r="5"></circle>
                    <circle id="Oval-12-Copy-3" cx="47.9571477" cy="53.4867866" r="5"></circle>
                    <circle id="Oval-12-Copy-4" cx="26.9603461" cy="53.8532872" r="5"></circle>
                    <circle id="Oval-12-Copy-5" cx="5.96354452" cy="54.2197877" r="5"></circle>
                    <circle id="Oval-12-Copy" cx="69.5349393" cy="29.106489" r="5"></circle>
                    <circle id="Oval-12-Copy-3" cx="47.53829" cy="29.4904419" r="5"></circle>
                    <circle id="Oval-12-Copy-4" cx="26.5414884" cy="29.8569425" r="5"></circle>
                    <circle id="Oval-12-Copy-3" cx="47.7950155" cy="101.496928" r="5"></circle>
                    <circle id="Oval-12-Copy-3" cx="48.1192799" cy="5.47664485" r="5"></circle>
                    <circle id="Oval-12-Copy" cx="70.3726548" cy="77.0991784" r="5"></circle>
                    <circle id="Oval-12-Copy-3" cx="48.3760055" cy="77.4831313" r="5"></circle>
                    <circle id="Oval-12-Copy-4" cx="27.3792039" cy="77.8496318" r="5"></circle>
                </g>
            </g>
            <g id="Dark-Data-BG-Tile" transform="translate(118.000000, 118.000000)" fill="#1462B8" fill-opacity="0.200000018">
                <g transform="translate(49.000000, 53.500000) scale(-1, 1) translate(-49.000000, -53.500000) ">
                    <circle id="Combined-Shape" transform="translate(90.148785, 53.232189) rotate(121.000000) translate(-90.148785, -53.232189) " cx="90.1487854" cy="53.2321895" r="5"></circle>
                    <circle id="Oval-12-Copy" cx="69.953797" cy="53.1028337" r="5"></circle>
                    <circle id="Oval-12-Copy-3" cx="47.9571477" cy="53.4867866" r="5"></circle>
                    <circle id="Oval-12-Copy-4" cx="26.9603461" cy="53.8532872" r="5"></circle>
                    <circle id="Oval-12-Copy-5" cx="5.96354452" cy="54.2197877" r="5"></circle>
                    <circle id="Oval-12-Copy" cx="69.5349393" cy="29.106489" r="5"></circle>
                    <circle id="Oval-12-Copy-3" cx="47.53829" cy="29.4904419" r="5"></circle>
                    <circle id="Oval-12-Copy-4" cx="26.5414884" cy="29.8569425" r="5"></circle>
                    <circle id="Oval-12-Copy-3" cx="47.7950155" cy="101.496928" r="5"></circle>
                    <circle id="Oval-12-Copy-3" cx="48.1192799" cy="5.47664485" r="5"></circle>
                    <circle id="Oval-12-Copy" cx="70.3726548" cy="77.0991784" r="5"></circle>
                    <circle id="Oval-12-Copy-3" cx="48.3760055" cy="77.4831313" r="5"></circle>
                    <circle id="Oval-12-Copy-4" cx="27.3792039" cy="77.8496318" r="5"></circle>
                </g>
            </g>
            <g id="Dark-Data-BG-Tile" transform="translate(0.000000, 861.000000)" fill="#1462B8" fill-opacity="0.200000018">
                <g transform="translate(49.000000, 53.500000) scale(-1, 1) translate(-49.000000, -53.500000) ">
                    <circle id="Combined-Shape" transform="translate(90.148785, 53.232189) rotate(121.000000) translate(-90.148785, -53.232189) " cx="90.1487854" cy="53.2321895" r="5"></circle>
                    <circle id="Oval-12-Copy" cx="69.953797" cy="53.1028337" r="5"></circle>
                    <circle id="Oval-12-Copy-3" cx="47.9571477" cy="53.4867866" r="5"></circle>
                    <circle id="Oval-12-Copy-4" cx="26.9603461" cy="53.8532872" r="5"></circle>
                    <circle id="Oval-12-Copy-5" cx="5.96354452" cy="54.2197877" r="5"></circle>
                    <circle id="Oval-12-Copy" cx="69.5349393" cy="29.106489" r="5"></circle>
                    <circle id="Oval-12-Copy-3" cx="47.53829" cy="29.4904419" r="5"></circle>
                    <circle id="Oval-12-Copy-4" cx="26.5414884" cy="29.8569425" r="5"></circle>
                    <circle id="Oval-12-Copy-3" cx="47.7950155" cy="101.496928" r="5"></circle>
                    <circle id="Oval-12-Copy-3" cx="48.1192799" cy="5.47664485" r="5"></circle>
                    <circle id="Oval-12-Copy" cx="70.3726548" cy="77.0991784" r="5"></circle>
                    <circle id="Oval-12-Copy-3" cx="48.3760055" cy="77.4831313" r="5"></circle>
                    <circle id="Oval-12-Copy-4" cx="27.3792039" cy="77.8496318" r="5"></circle>
                </g>
            </g>
            <g id="Dark-Data-BG-Tile" transform="translate(43.000000, 934.000000)" fill="#1462B8" fill-opacity="0.200000018">
                <g transform="translate(49.000000, 53.500000) scale(-1, 1) translate(-49.000000, -53.500000) ">
                    <circle id="Combined-Shape" transform="translate(90.148785, 53.232189) rotate(121.000000) translate(-90.148785, -53.232189) " cx="90.1487854" cy="53.2321895" r="5"></circle>
                    <circle id="Oval-12-Copy" cx="69.953797" cy="53.1028337" r="5"></circle>
                    <circle id="Oval-12-Copy-3" cx="47.9571477" cy="53.4867866" r="5"></circle>
                    <circle id="Oval-12-Copy-4" cx="26.9603461" cy="53.8532872" r="5"></circle>
                    <circle id="Oval-12-Copy-5" cx="5.96354452" cy="54.2197877" r="5"></circle>
                    <circle id="Oval-12-Copy" cx="69.5349393" cy="29.106489" r="5"></circle>
                    <circle id="Oval-12-Copy-3" cx="47.53829" cy="29.4904419" r="5"></circle>
                    <circle id="Oval-12-Copy-4" cx="26.5414884" cy="29.8569425" r="5"></circle>
                    <circle id="Oval-12-Copy-3" cx="47.7950155" cy="101.496928" r="5"></circle>
                    <circle id="Oval-12-Copy-3" cx="48.1192799" cy="5.47664485" r="5"></circle>
                    <circle id="Oval-12-Copy" cx="70.3726548" cy="77.0991784" r="5"></circle>
                    <circle id="Oval-12-Copy-3" cx="48.3760055" cy="77.4831313" r="5"></circle>
                    <circle id="Oval-12-Copy-4" cx="27.3792039" cy="77.8496318" r="5"></circle>
                </g>
            </g>
        </g>
    </g>
</svg>