<?xml version="1.0" encoding="UTF-8"?>
<svg width="74px" height="79px" viewBox="0 0 74 79" version="1.1" xmlns="http://www.w3.org/2000/svg" xmlns:xlink="http://www.w3.org/1999/xlink">
    <!-- Generator: Sketch 49 (51002) - http://www.bohemiancoding.com/sketch -->
    <title>Strategies Icon Blue 1</title>
    <desc>Created with Sketch.</desc>
    <defs>
        <polygon id="path-1" points="0.250288936 0.166920366 9.24493305 0.166920366 9.24493305 9.16138125 0.250288936 9.16138125"></polygon>
    </defs>
    <g id="Portals" stroke="none" stroke-width="1" fill="none" fill-rule="evenodd">
        <g id="Brand-Page" transform="translate(-740.000000, -2987.000000)">
            <g id="end-to-end-solutions" transform="translate(0.000000, 2222.000000)">
                <g id="End-to-End-Diagram" transform="translate(145.000000, 765.000000)">
                    <g id="Strategies-Icon-Blue" transform="translate(595.000000, 0.000000)">
                        <g id="Page-1">
                            <path d="M8.99436927,39.451198 C8.99436927,41.9348485 6.98161381,43.9485201 4.49796335,43.9485201 C2.01339676,43.9485201 0.000641296688,41.9348485 0.000641296688,39.451198 C0.000641296688,36.9675476 2.01339676,34.953876 4.49796335,34.953876 C6.98161381,34.953876 8.99436927,36.9675476 8.99436927,39.451198" id="Fill-1" fill="#1B7FEE" opacity="0.3"></path>
                            <path d="M57.4665046,39.451198 C57.4665046,41.9348485 55.4537491,43.9485201 52.9691825,43.9485201 C50.4855321,43.9485201 48.4727766,41.9348485 48.4727766,39.451198 C48.4727766,36.9675476 50.4855321,34.953876 52.9691825,34.953876 C55.4537491,34.953876 57.4665046,36.9675476 57.4665046,39.451198" id="Fill-3" fill="#1B7FEE"></path>
                            <path d="M24.4855321,56.5035518 C24.4855321,58.9881184 22.4727766,61.0008739 19.98821,61.0008739 C17.5045595,61.0008739 15.4918041,58.9881184 15.4918041,56.5035518 C15.4918041,54.0199013 17.5045595,52.0062297 19.98821,52.0062297 C22.4727766,52.0062297 24.4855321,54.0199013 24.4855321,56.5035518" id="Fill-5" fill="#1B7FEE"></path>
                            <path d="M73.6241579,39.451198 C73.6241579,41.9348485 71.6104863,43.9485201 69.1268358,43.9485201 C66.6431853,43.9485201 64.6295137,41.9348485 64.6295137,39.451198 C64.6295137,36.9675476 66.6431853,34.953876 69.1268358,34.953876 C71.6104863,34.953876 73.6241579,36.9675476 73.6241579,39.451198" id="Fill-7" fill="#1B7FEE" opacity="0.3"></path>
                            <g id="Group-18" transform="translate(32.064834, 0.182220)">
                                <path d="M9.24493305,5.16344609 C9.24493305,7.64801268 7.23126145,9.66076815 4.74761099,9.66076815 C2.26396054,9.66076815 0.250288936,7.64801268 0.250288936,5.16344609 C0.250288936,2.67979563 2.26396054,0.666124031 4.74761099,0.666124031 C7.23126145,0.666124031 9.24493305,2.67979563 9.24493305,5.16344609" id="Fill-9" fill="#1B7FEE"></path>
                                <path d="M9.24493305,39.2689782 C9.24493305,41.7526286 7.23126145,43.7663002 4.74761099,43.7663002 C2.26396054,43.7663002 0.250288936,41.7526286 0.250288936,39.2689782 C0.250288936,36.7853277 2.26396054,34.7716561 4.74761099,34.7716561 C7.23126145,34.7716561 9.24493305,36.7853277 9.24493305,39.2689782" id="Fill-11" fill="#1B7FEE"></path>
                                <path d="M9.24493305,56.3213319 C9.24493305,58.8058985 7.23126145,60.818654 4.74761099,60.818654 C2.26396054,60.818654 0.250288936,58.8058985 0.250288936,56.3213319 C0.250288936,53.8376815 2.26396054,51.8240099 4.74761099,51.8240099 C7.23126145,51.8240099 9.24493305,53.8376815 9.24493305,56.3213319" id="Fill-13" fill="#1B7FEE" opacity="0.3"></path>
                                <g id="Group-17" transform="translate(0.000000, 68.710359)">
                                    <mask id="mask-2" fill="white">
                                        <use xlink:href="#path-1"></use>
                                    </mask>
                                    <g id="Clip-16"></g>
                                    <path d="M9.24493305,4.66424242 C9.24493305,7.14789288 7.23126145,9.16156448 4.74761099,9.16156448 C2.26396054,9.16156448 0.250288936,7.14789288 0.250288936,4.66424242 C0.250288936,2.17967583 2.26396054,0.166920366 4.74761099,0.166920366 C7.23126145,0.166920366 9.24493305,2.17967583 9.24493305,4.66424242" id="Fill-15" fill="#1B7FEE" mask="url(#mask-2)"></path>
                                </g>
                            </g>
                            <path d="M20.0300775,56.8578224 C20.0300775,39.9092671 24.1526991,21.5865046 55.3013953,21.5865046" id="Stroke-19" stroke="#1B7FEE" stroke-width="2"></path>
                            <polygon id="Fill-21" fill="#1B7FEE" points="50.2626357 17.005814 57.5917407 21.5865046 50.2626357 26.1671952"></polygon>
                            <polygon id="Fill-23" fill="#1B7FEE" points="15.277611 7.78717407 20.1441367 -1.42108547e-14 25.0115786 7.78717407"></polygon>
                            <path d="M20.1445948,1.43146582 L20.1445948,55.4836152" id="Stroke-25" stroke="#1B7FEE" stroke-width="2"></path>
                            <polygon id="Stroke-27" stroke="#1B7FEE" stroke-width="2" points="53.01105 48.1545102 53.01105 56.8578224 53.01105 48.1545102 53.01105 39.451198"></polygon>
                            <polygon id="Stroke-29" stroke="#1B7FEE" stroke-width="0.895" points="55.7594644 56.8578224 53.01105 56.8578224 50.2626357 56.8578224 53.01105 56.8578224"></polygon>
                        </g>
                    </g>
                </g>
            </g>
        </g>
    </g>
</svg>