<?xml version="1.0" encoding="UTF-8"?>
<svg width="42px" height="42px" viewBox="0 0 42 42" version="1.1" xmlns="http://www.w3.org/2000/svg" xmlns:xlink="http://www.w3.org/1999/xlink">
    <!-- Generator: Sketch 49 (51002) - http://www.bohemiancoding.com/sketch -->
    <title>Monitors Icon</title>
    <desc>Created with Sketch.</desc>
    <defs></defs>
    <g id="Portals" stroke="none" stroke-width="1" fill="none" fill-rule="evenodd">
        <g id="Brand-Page" transform="translate(-1009.000000, -1660.000000)">
            <g id="CommerceIQ-Diagram" transform="translate(-158.000000, 933.000000)">
                <g id="Diagram" transform="translate(439.000000, 375.000000)">
                    <g id="Monitors" transform="translate(618.000000, 296.000000)">
                        <g id="Monitors-Icon" transform="translate(131.000000, 77.000000) rotate(-135.000000) translate(-131.000000, -77.000000) translate(110.000000, 56.000000)">
                            <path d="M34.87505,33.6955818 L29.8032318,28.6237636 C33.7327773,24.0037636 33.5195955,17.0384455 29.1541409,12.6761727 C24.5659591,8.08512727 17.09505,8.08512727 12.5068682,12.6761727 C8.14141364,17.0384455 7.92823182,24.0037636 11.8577773,28.6237636 L6.78595909,33.6955818 C0.0691409091,26.2724 0.288686364,14.7701273 7.44459545,7.6139 C14.8264136,0.2324 26.8345955,0.2324 34.2164136,7.6139 C41.3723227,14.7701273 41.5918682,26.2724 34.87505,33.6955818 Z M25.7273227,24.5478545 C27.4423227,22.1834455 27.2355045,18.8552636 25.1068682,16.7234455 C22.7459591,14.3660364 18.91505,14.3660364 16.5541409,16.7234455 C14.4255045,18.8552636 14.2186864,22.1834455 15.9336864,24.5478545 L13.2132318,27.2683091 C10.02505,23.3960364 10.2382318,17.6433091 13.8559591,14.0255818 C17.7027773,10.1787636 23.9582318,10.1787636 27.80505,14.0255818 C31.4227773,17.6433091 31.6359591,23.3960364 28.4477773,27.2683091 L25.7273227,24.5478545 Z M35.5686864,6.26162727 C27.4423227,-1.86123636 14.2186864,-1.86473636 6.09232273,6.26162727 C-2.03085909,14.3879909 -2.03085909,27.6119455 6.09232273,35.7383091 L6.77005,36.4128545 L13.1814136,30.0014909 L20.8305045,22.3492182 L28.4795955,30.0014909 L34.8909591,36.4128545 L35.5686864,35.7383091 C43.6918682,27.6119455 43.6918682,14.3879909 35.5686864,6.26162727 Z" id="Fill-1" fill="#1B7FEE"></path>
                            <path d="M31.7811455,38.71315 C28.5993273,40.5999682 24.8861455,41.6817864 20.9184182,41.6817864 C16.9061455,41.6817864 13.1484182,40.5745136 9.94114545,38.6495136 L13.1802364,35.4104227 L20.8293273,27.75815 L28.4784182,35.4104227 L31.7811455,38.71315 Z" id="Fill-4" fill="#1BDEEE"></path>
                        </g>
                    </g>
                </g>
            </g>
        </g>
    </g>
</svg>