<?xml version="1.0" encoding="UTF-8" standalone="no"?>
<svg width="29px" height="44px" viewBox="0 0 29 44" version="1.1" xmlns="http://www.w3.org/2000/svg" xmlns:xlink="http://www.w3.org/1999/xlink">
    <!-- Generator: sketchtool 48.2 (47327) - http://www.bohemiancoding.com/sketch -->
    <title>B327B0D8-0EC0-47B0-8A86-4C7282D1AE0E</title>
    <desc>Created with sketchtool.</desc>
    <defs></defs>
    <g id="Home-Design" stroke="none" stroke-width="1" fill="none" fill-rule="evenodd" transform="translate(-329.000000, -1779.000000)">
        <g id="CommerceIQ" transform="translate(173.000000, 1492.000000)">
            <g id="Brands" transform="translate(0.000000, 219.000000)">
                <g id="Brands-Bottle-Icon" transform="translate(156.000000, 68.000000)">
                    <path d="M14.2353157,25.9024168 C11.7333549,25.9024168 9.70590392,23.8278158 9.70590392,21.2676699 C9.70590392,18.7075239 11.7333549,16.6329229 14.2353157,16.6329229 C16.7372765,16.6329229 18.7647275,18.7075239 18.7647275,21.2676699 C18.7647275,23.8278158 16.7372765,25.9024168 14.2353157,25.9024168 M20.281002,10.0118559 L8.18962941,10.0118559 C3.66668824,10.0118559 2.15686275e-05,13.1350132 2.15686275e-05,16.9875914 L2.15686275e-05,37.0242645 C2.15686275e-05,40.8768427 3.66668824,44 8.18962941,44 L20.281002,44 C24.8039431,44 28.4706098,40.8768427 28.4706098,37.0242645 L28.4706098,16.9875914 C28.4706098,13.1350132 24.8039431,10.0118559 20.281002,10.0118559" id="Fill-1" fill="#FFFFFF"></path>
                    <path d="M24.996249,8.18604651 L3.47442549,8.18604651 C1.97756275,8.18604651 0.764327451,7.03488372 0.764327451,5.61460465 L0.764327451,2.57144186 C0.764327451,1.15116279 1.97756275,0 3.47442549,0 L24.996249,0 C26.4928961,0 27.7061314,1.15116279 27.7061314,2.57144186 L27.7061314,5.61460465 C27.7061314,7.03488372 26.4928961,8.18604651 24.996249,8.18604651" id="Fill-4" fill="#FFFFFF"></path>
                    <path d="M19.3785059,31.2135057 L9.09221176,31.2135057 C8.66191765,31.2135057 8.31336863,30.8568509 8.31336863,30.4167706 L8.31336863,30.1241195 C8.31336863,29.6842599 8.66191765,29.3273844 9.09221176,29.3273844 L19.3785059,29.3273844 C19.8085843,29.3273844 20.1571333,29.6842599 20.1571333,30.1241195 L20.1571333,30.4167706 C20.1571333,30.8568509 19.8085843,31.2135057 19.3785059,31.2135057" id="Fill-6" fill="#2665D0" opacity="0.3"></path>
                    <path d="M17.8116314,35.4874486 L10.6588275,35.4874486 C10.2951804,35.4874486 10.0003373,35.1857487 10.0003373,34.813424 L10.0003373,34.2751312 C10.0003373,33.9028066 10.2951804,33.6013273 10.6588275,33.6013273 L17.8116314,33.6013273 C18.1754941,33.6013273 18.4703373,33.9028066 18.4703373,34.2751312 L18.4703373,34.813424 C18.4703373,35.1857487 18.1754941,35.4874486 17.8116314,35.4874486" id="Fill-8" fill="#2665D0" opacity="0.3"></path>
                </g>
            </g>
        </g>
    </g>
</svg>