<?xml version="1.0" encoding="UTF-8" standalone="no"?>
<svg width="1442px" height="629px" viewBox="0 0 1442 629" version="1.1" xmlns="http://www.w3.org/2000/svg" xmlns:xlink="http://www.w3.org/1999/xlink">
    <!-- Generator: Sketch 40.2 (33826) - http://www.bohemiancoding.com/sketch -->
    <title>Ilustration</title>
    <desc>Created with Sketch.</desc>
    <defs></defs>
    <g id="z" stroke="none" stroke-width="1" fill="none" fill-rule="evenodd">
        <g id="About-Page---Desktop-HD" transform="translate(0.000000, -50.000000)">
            <g id="Hero" transform="translate(-27.241903, -42.591381)">
                <g id="Ilustration" transform="translate(11.000000, 71.000000)">
                    <g id="Group-8" transform="translate(223.642933, 463.132210) rotate(20.000000) translate(-223.642933, -463.132210) translate(90.642933, 318.632210)">
                        <rect id="SVGID_31_" fill="#FFFFFF" x="53.1329968" y="105.255492" width="212.531987" height="118.683889"></rect>
                        <path d="M245.256367,203.593572 L204.603006,203.593572 C201.199469,203.593572 198.363188,200.832658 198.363188,197.519562 L198.363188,121.502407 C198.363188,118.189311 201.199469,115.428397 204.603006,115.428397 L245.256367,115.428397 C248.659904,115.428397 251.496185,118.189311 251.496185,121.502407 L251.496185,197.519562 C251.307099,200.832658 248.659904,203.593572 245.256367,203.593572 L245.256367,203.593572 Z" id="Shape" stroke="#C5DEFA" fill="#FFFFFF"></path>
                        <rect id="Rectangle-path" stroke="#C5DEFA" fill="#FFFFFF" x="205.447588" y="179.856794" width="42.5063974" height="13.5638731"></rect>
                        <rect id="Rectangle-path" stroke="#C5DEFA" fill="#FFFFFF" x="216.074187" y="162.901953" width="7.08439957" height="6.78193653"></rect>
                        <path d="M244.231061,169.683889 C244.231061,171.548922 243.508163,173.074858 241.881643,173.074858 L233.568317,173.074858 C231.580347,173.074858 228.327307,171.040277 226.700786,166.292921 L227.965858,166.292921 L244.411785,166.292921 L244.411785,169.683889 L244.231061,169.683889 Z" id="Shape" stroke="#C5DEFA" fill="#FFFFFF"></path>
                        <path d="M240.869325,162.091069 C240.869325,162.091069 241.225556,163.915557 215.57692,162.091069 L215.57692,162.091069 L216.111267,154.245769 L216.111267,153.698423 L212.548956,128.520483 C212.370841,126.878444 213.617649,125.601302 215.220689,125.601302 L230.182393,125.601302 C231.072971,125.601302 231.785433,126.331097 231.607318,127.243341 L229.648047,146.582918 C228.935585,151.509037 230.360509,153.880871 232.676011,155.70536 C235.169628,157.347399 240.869325,155.887809 240.869325,162.091069 L240.869325,162.091069 L240.869325,162.091069 Z" id="Shape" stroke="#C5DEFA" fill="#FFFFFF"></path>
                        <path d="M233.785186,142.556143 L223.158587,142.556143 L212.531987,142.556143 L212.531987,128.329667 C212.531987,126.770601 213.464145,125.601302 214.769166,125.601302 L231.548007,125.601302 C232.853028,125.601302 233.785186,126.770601 233.785186,128.329667 L233.785186,142.556143 L233.785186,142.556143 Z" id="Shape" stroke="#C5DEFA" fill="#FFFFFF"></path>
                        <path d="M224.124641,132.383238 L222.192532,132.383238 C220.689781,132.383238 219.616387,131.556173 219.616387,130.398281 L219.616387,125.601302 L226.700786,125.601302 L226.700786,130.398281 C226.700786,131.556173 225.412714,132.383238 224.124641,132.383238 L224.124641,132.383238 Z" id="Shape" stroke="#C5DEFA" fill="#FFFFFF"></path>
                        <path d="M177.954571,203.593572 L137.30121,203.593572 C133.897673,203.593572 131.061392,200.832658 131.061392,197.519562 L131.061392,121.502407 C131.061392,118.189311 133.897673,115.428397 137.30121,115.428397 L177.954571,115.428397 C181.358108,115.428397 184.194389,118.189311 184.194389,121.502407 L184.194389,197.519562 C184.194389,200.832658 181.358108,203.593572 177.954571,203.593572 L177.954571,203.593572 Z" id="Shape" stroke="#C5DEFA" fill="#FFFFFF"></path>
                        <rect id="Rectangle-path" stroke="#C5DEFA" fill="#FFFFFF" x="138.145792" y="179.856794" width="42.5063974" height="13.5638731"></rect>
                        <rect id="Rectangle-path" stroke="#C5DEFA" fill="#FFFFFF" x="138.145792" y="156.120016" width="42.5063974" height="6.78193653"></rect>
                        <path d="M172.323233,132.383238 L146.666218,132.383238 C143.985635,132.383238 141.687991,134.472075 141.687991,137.320488 L141.687991,156.120016 L177.109989,156.120016 L177.109989,137.320488 C177.109989,134.661969 175.003816,132.383238 172.323233,132.383238 L172.323233,132.383238 Z" id="Shape" stroke="#C5DEFA" fill="#FFFFFF"></path>
                        <path d="M110.652775,203.593572 L69.9994143,203.593572 C66.5958771,203.593572 63.7595962,200.832658 63.7595962,197.519562 L63.7595962,121.502407 C63.7595962,118.189311 66.5958771,115.428397 69.9994143,115.428397 L110.652775,115.428397 C114.056312,115.428397 116.892593,118.189311 116.892593,121.502407 L116.892593,197.519562 C116.892593,200.832658 114.056312,203.593572 110.652775,203.593572 L110.652775,203.593572 Z" id="Shape" stroke="#C5DEFA" fill="#FFFFFF"></path>
                        <rect id="Rectangle-path" stroke="#C5DEFA" fill="#FFFFFF" x="67.3017959" y="179.856794" width="42.5063974" height="13.5638731"></rect>
                        <path d="M106.265994,162.901953 L77.9283953,162.901953 L77.9283953,142.159328 C77.9283953,134.764131 84.289897,128.99227 92.0008081,128.99227 L92.0008081,128.99227 C99.9044919,128.99227 106.073221,134.944502 106.073221,142.159328 L106.073221,162.901953 L106.265994,162.901953 Z" id="Shape" stroke="#C5DEFA" fill="#FFFFFF"></path>
                        <path d="M76.0515383,142.556143 L76.0515383,142.556143 C78.9868607,142.556143 81.4705951,144.708104 81.4705951,147.25133 L81.4705951,162.901953 L70.8582756,162.901953 L70.8582756,147.25133 C70.6324816,144.512471 73.1162159,142.556143 76.0515383,142.556143 L76.0515383,142.556143 Z" id="Shape" stroke="#C5DEFA" fill="#FFFFFF"></path>
                        <path d="M107.931336,142.556143 L107.931336,142.556143 C110.866659,142.556143 113.350393,144.708104 113.350393,147.25133 L113.350393,162.901953 L102.738074,162.901953 L102.738074,147.25133 C102.51228,144.512471 104.996014,142.556143 107.931336,142.556143 L107.931336,142.556143 Z" id="Shape" stroke="#C5DEFA" fill="#FFFFFF"></path>
                        <path d="M99.181594,159.510985 L81.4705951,159.510985 L81.4705951,159.510985 C81.4705951,155.791858 83.9501349,152.729048 86.9610048,152.729048 L93.6911843,152.729048 C96.8791642,152.729048 99.181594,155.791858 99.181594,159.510985 L99.181594,159.510985 L99.181594,159.510985 Z" id="Shape" stroke="#C5DEFA" fill="#FFFFFF"></path>
                        <rect id="Rectangle-path" stroke="#C5DEFA" fill="#FFFFFF" x="74.3861955" y="162.901953" width="3.54219979" height="6.78193653"></rect>
                        <rect id="Rectangle-path" stroke="#C5DEFA" fill="#FFFFFF" x="102.723794" y="162.901953" width="3.54219979" height="6.78193653"></rect>
                        <rect id="SVGID_69_" stroke="#C5DEFA" x="46.0485972" y="112.037429" width="212.531987" height="118.683889"></rect>
                        <rect id="SVGID_71_" stroke="#C5DEFA" x="46.0485972" y="112.037429" width="212.531987" height="118.683889"></rect>
                        <rect id="SVGID_75_" stroke="#C5DEFA" x="38.9641976" y="105.255492" width="212.531987" height="118.683889"></rect>
                        <rect id="Rectangle-path" stroke="#C5DEFA" fill="#FFFFFF" x="88.5549947" y="274.803906" width="113.350393" height="13.5638731"></rect>
                        <polygon id="Shape" stroke="#C5DEFA" fill="#F7FBFF" points="179.000814 220.548413 115.001768 220.548413 106.265994 274.803906 187.736589 274.803906"></polygon>
                        <path d="M49.0402251,244.285191 C37.5596775,244.285191 28.3375983,234.988286 28.3375983,223.414589 L28.3375983,105.780285 C28.3375983,94.2065873 37.5596775,84.9096827 49.0402251,84.9096827 L244.962357,84.9096827 C256.442905,84.9096827 265.664984,94.2065873 265.664984,105.780285 L265.664984,223.414589 C265.664984,234.988286 256.442905,244.285191 244.962357,244.285191 L49.0402251,244.285191 Z" id="SVGID_77_" fill="#F7FBFF"></path>
                        <rect id="SVGID_79_" fill="#FFFFFF" x="38.9641976" y="105.255492" width="212.531987" height="118.683889"></rect>
                        <rect id="SVGID_79_" stroke="#C5DEFA" x="38.9641976" y="105.255492" width="212.531987" height="118.683889"></rect>
                        <path d="M234.213779,203.593572 L190.850195,203.593572 C187.219755,203.593572 184.194389,200.832658 184.194389,197.519562 L184.194389,121.502407 C184.194389,118.189311 187.219755,115.428397 190.850195,115.428397 L234.213779,115.428397 C237.844219,115.428397 240.869585,118.189311 240.869585,121.502407 L240.869585,197.519562 C240.667894,200.832658 237.844219,203.593572 234.213779,203.593572 L234.213779,203.593572 Z" id="Shape" stroke="#C5DEFA" fill="#FFFFFF"></path>
                        <rect id="Rectangle-path" stroke="#C5DEFA" fill="#F6FAFF" x="191.278788" y="179.856794" width="42.5063974" height="13.5638731"></rect>
                        <rect id="Rectangle-path" stroke="#C5DEFA" fill="#FFFFFF" x="201.905388" y="162.901953" width="7.08439957" height="6.78193653"></rect>
                        <path d="M226.520062,166.292921 C226.520062,168.157954 225.797164,169.683889 224.170644,169.683889 L215.857318,169.683889 C213.869348,169.683889 210.616308,167.649308 208.989787,162.901953 L210.254859,162.901953 L226.700786,162.901953 L226.700786,166.292921 L226.520062,166.292921 Z" id="Shape" stroke="#C5DEFA" fill="#FFFFFF"></path>
                        <path d="M226.700526,162.091069 C226.700526,162.091069 227.056757,163.915557 201.408121,162.091069 L201.408121,162.091069 L201.942467,154.245769 L201.942467,153.698423 L198.380157,128.520483 C198.202041,126.878444 199.44885,125.601302 201.05189,125.601302 L216.013594,125.601302 C216.904172,125.601302 217.616634,126.331097 217.438519,127.243341 L215.479248,146.582918 C214.766786,151.509037 216.19171,153.880871 218.507212,155.70536 C221.000829,157.347399 226.700526,155.887809 226.700526,162.091069 L226.700526,162.091069 L226.700526,162.091069 Z" id="Shape" stroke="#C5DEFA" fill="#FFFFFF"></path>
                        <path d="M219.616387,142.556143 L208.989787,142.556143 L198.363188,142.556143 L198.363188,128.329667 C198.363188,126.770601 199.295346,125.601302 200.600367,125.601302 L217.379208,125.601302 C218.684229,125.601302 219.616387,126.770601 219.616387,128.329667 L219.616387,142.556143 L219.616387,142.556143 Z" id="Shape" stroke="#C5DEFA" fill="#FFFFFF"></path>
                        <path d="M209.955842,132.383238 L208.023733,132.383238 C206.520981,132.383238 205.447588,131.556173 205.447588,130.398281 L205.447588,125.601302 L212.531987,125.601302 L212.531987,130.398281 C212.531987,131.556173 211.243915,132.383238 209.955842,132.383238 L209.955842,132.383238 Z" id="Shape" stroke="#C5DEFA" fill="#FFFFFF"></path>
                        <path d="M166.911984,203.593572 L123.548399,203.593572 C119.917959,203.593572 116.892593,200.832658 116.892593,197.519562 L116.892593,121.502407 C116.892593,118.189311 119.917959,115.428397 123.548399,115.428397 L166.911984,115.428397 C170.542423,115.428397 173.56779,118.189311 173.56779,121.502407 L173.56779,197.519562 C173.56779,200.832658 170.542423,203.593572 166.911984,203.593572 L166.911984,203.593572 Z" id="Shape" stroke="#C5DEFA" fill="#FFFFFF"></path>
                        <rect id="Rectangle-path" stroke="#C5DEFA" fill="#F6FAFF" x="123.976993" y="179.856794" width="38.9641976" height="13.5638731"></rect>
                        <rect id="Rectangle-path" stroke="#C5DEFA" fill="#FFFFFF" x="123.976993" y="156.120016" width="42.5063974" height="6.78193653"></rect>
                        <path d="M158.154434,132.383238 L132.497419,132.383238 C129.816835,132.383238 127.519192,134.472075 127.519192,137.320488 L127.519192,156.120016 L162.94119,156.120016 L162.94119,137.320488 C162.94119,134.661969 160.835017,132.383238 158.154434,132.383238 L158.154434,132.383238 Z" id="Shape" stroke="#C5DEFA" fill="#FFFFFF"></path>
                        <path d="M99.6101876,203.593572 L56.246603,203.593572 C52.6161634,203.593572 49.590797,200.832658 49.590797,197.519562 L49.590797,121.502407 C49.590797,118.189311 52.6161634,115.428397 56.246603,115.428397 L99.6101876,115.428397 C103.240627,115.428397 106.265994,118.189311 106.265994,121.502407 L106.265994,197.519562 C106.265994,200.832658 103.240627,203.593572 99.6101876,203.593572 L99.6101876,203.593572 Z" id="Shape" stroke="#C5DEFA" fill="#FFFFFF"></path>
                        <rect id="Rectangle-path" stroke="#C5DEFA" fill="#F6FAFF" x="56.6751966" y="179.856794" width="42.5063974" height="13.5638731"></rect>
                        <path d="M92.0971944,162.901953 L63.7595962,162.901953 L63.7595962,142.159328 C63.7595962,134.764131 70.1210978,128.99227 77.8320089,128.99227 L77.8320089,128.99227 C85.7356928,128.99227 91.9044217,134.944502 91.9044217,142.159328 L91.9044217,162.901953 L92.0971944,162.901953 Z" id="Shape" stroke="#C5DEFA" fill="#FFFFFF"></path>
                        <path d="M61.8827392,142.556143 L61.8827392,142.556143 C64.8180616,142.556143 67.3017959,144.708104 67.3017959,147.25133 L67.3017959,162.901953 L56.6894764,162.901953 L56.6894764,147.25133 C56.4636824,144.512471 58.9474168,142.556143 61.8827392,142.556143 L61.8827392,142.556143 Z" id="Shape" stroke="#C5DEFA" fill="#FFFFFF"></path>
                        <path d="M93.7625373,142.556143 L93.7625373,142.556143 C96.6978597,142.556143 99.181594,144.708104 99.181594,147.25133 L99.181594,162.901953 L88.5692745,162.901953 L88.5692745,147.25133 C88.3434805,144.512471 90.8272148,142.556143 93.7625373,142.556143 L93.7625373,142.556143 Z" id="Shape" stroke="#C5DEFA" fill="#FFFFFF"></path>
                        <path d="M85.0127949,159.510985 L67.3017959,159.510985 L67.3017959,159.510985 C67.3017959,155.791858 69.7813358,152.729048 72.7922056,152.729048 L79.5223852,152.729048 C82.710365,152.729048 85.0127949,155.791858 85.0127949,159.510985 L85.0127949,159.510985 L85.0127949,159.510985 Z" id="Shape" stroke="#C5DEFA" fill="#FFFFFF"></path>
                        <rect id="Rectangle-path" stroke="#C5DEFA" fill="#FFFFFF" x="60.2173964" y="162.901953" width="3.54219979" height="6.78193653"></rect>
                        <rect id="Rectangle-path" stroke="#C5DEFA" fill="#FFFFFF" x="92.0971944" y="162.901953" width="3.54219979" height="6.78193653"></rect>
                        <path d="M48.7312307,244.285191 C37.4220345,244.285191 28.3375983,234.988286 28.3375983,223.414589 L28.3375983,105.780285 C28.3375983,94.2065873 37.4220345,84.9096827 48.7312307,84.9096827 L241.729152,84.9096827 C253.038348,84.9096827 262.122784,94.2065873 262.122784,105.780285 L262.122784,108.404416 L262.122784,223.414589 C262.122784,234.988286 253.038348,244.285191 241.729152,244.285191 L48.7312307,244.285191 Z" id="SVGID_81_" stroke="#C5DEFA"></path>
                        <rect id="SVGID_83_" stroke="#C5DEFA" x="38.9641976" y="105.255492" width="212.531987" height="118.683889"></rect>
                        <polyline id="Rectangle-path" stroke="#C5DEFA" fill="#FFFFFF" points="3.75877107e-12 261.240032 17.7109989 244.285191 35.4219979 261.240032 17.7109989 278.194874 3.75877107e-12 261.240032"></polyline>
                        <path d="M216.074187,254.458096 L230.242986,268.021969" id="Shape" stroke="#C5DEFA"></path>
                        <path d="M216.074187,268.021969 L230.242986,254.458096" id="Shape" stroke="#C5DEFA"></path>
                        <path d="M129.290292,0.401105387 L154.085691,24.1378832" id="Shape" stroke="#C5DEFA"></path>
                        <path d="M129.290292,24.1378832 L154.085691,0.401105387" id="Shape" stroke="#C5DEFA"></path>
                    </g>
                    <g id="Group-6" transform="translate(1312.863712, 550.128827) rotate(12.000000) translate(-1312.863712, -550.128827) translate(1215.863712, 431.128827)" stroke="#C5DEFA">
                        <path d="M42.2132525,64.1409905 C39.3177755,65.2227075 37.1116978,66.5748536 35.3192596,68.0622144 C47.0390475,66.9804975 56.276998,73.6060137 61.3785527,78.47374 C62.3437117,79.4202423 63.4467506,80.5019592 64.4119096,81.7188908 C64.8255491,82.1245346 65.1013088,82.5301785 65.3770686,82.8006077 C65.6528283,83.0710369 65.928588,83.4766808 66.2043477,83.8823247 C67.0316268,85.0992562 67.858906,86.3161878 68.4104254,87.3979047 C71.5816621,93.0769186 74.615019,102.001083 67.1695067,108.491385 C69.789224,108.220956 72.684701,107.680097 75.580178,106.463166 C96.2621566,98.3502887 83.30145,80.3667446 80.5438529,76.8511645 C77.7862557,73.3355845 62.8952311,56.0281135 42.2132525,64.1409905 L42.2132525,64.1409905 Z" id="Shape" fill="#F7FBFF"></path>
                        <path d="M51.9962571,86.8381901 C45.9295434,79.1309569 45.2401441,72.5054407 46.3431829,69.1250753 C50.0659391,70.0715776 55.5811334,72.6406553 60.820568,77.5083815 C55.7190132,72.6406553 46.4810628,66.0151391 34.7612749,67.096856 C27.3157626,73.5871576 30.3491195,82.5113224 33.5203562,88.1903363 C34.3476353,89.5424825 35.1749145,90.759414 35.7264339,91.7059164 C36.0021936,92.1115602 36.2779533,92.5172041 36.5537131,92.7876333 C36.8294728,93.0580625 37.1052325,93.598921 37.5188721,93.8693502 C38.2082713,94.6806379 39.3113102,95.8975695 40.5522289,97.114501 C45.6537836,101.982227 54.8917341,108.607744 66.611522,107.526027 C74.0570343,101.035725 71.0236774,92.1115602 67.8524407,86.4325463 C71.0236774,92.1115602 71.1615573,96.8440718 70.3342781,99.5483642 C65.7842428,98.4666472 58.0629708,94.5454233 51.9962571,86.8381901 L51.9962571,86.8381901 Z" id="Shape" fill="#F7FBFF"></path>
                        <path d="M112.879971,91.8769302 C112.052692,93.364291 111.225413,94.5812226 110.536013,95.5277249 C111.501172,94.3107933 112.328452,93.0938618 112.879971,91.8769302 L112.879971,91.8769302 Z" id="Shape" fill="#FFFFFF"></path>
                        <path d="M76.8181583,90.5482365 C77.6454374,89.0608757 78.4727166,87.8439442 79.1621159,86.8974419 C78.1969569,88.249588 77.3696777,89.4665196 76.8181583,90.5482365 L76.8181583,90.5482365 Z" id="Shape" fill="#FFFFFF"></path>
                        <path d="M105.348651,100.236784 C106.45169,99.1550671 107.554729,98.0733502 108.519888,96.8564186 C107.692609,97.8029209 106.72745,99.0198525 105.348651,100.236784 L105.348651,100.236784 Z" id="Shape" fill="#FFFFFF"></path>
                        <path d="M70.8273053,109.944687 C73.8606621,111.161619 76.894019,111.837692 79.6516161,112.108121 C71.6545844,105.34739 74.8258211,95.8823671 78.1349377,90.0681385 C78.824337,88.8512069 79.5137363,87.6342754 80.4788953,86.4173438 C80.8925349,85.8764854 81.1682946,85.4708415 81.3061744,85.2004123 C81.4440543,84.929983 81.8576939,84.5243392 82.2713334,83.9834807 C83.2364924,82.7665492 84.3395313,81.6848322 85.4425701,80.6031153 C90.8198846,75.4649598 100.471475,68.5690143 112.880662,69.7859459 C111.088224,68.2985851 108.744266,66.8112243 105.573029,65.5942928 C83.650132,57.0757719 68.0697081,75.1945306 65.1742311,78.8453253 C62.2787541,82.4961199 48.9044079,101.426166 70.8273053,109.944687 L70.8273053,109.944687 Z" id="Shape" fill="#F7FBFF"></path>
                        <path d="M79.4118395,85.6246292 C79.6875992,85.2189854 79.9633589,84.8133415 80.2391186,84.4076977 C80.1012387,84.8133415 79.825479,85.2189854 79.4118395,85.6246292 L79.4118395,85.6246292 Z" id="Shape" fill="#FFFFFF"></path>
                        <path d="M79.4118395,85.6246292 C79.6875992,85.2189854 80.1012387,84.8133415 80.3769985,84.4076977 C79.9633589,84.9485561 79.6875992,85.3542 79.4118395,85.6246292 L79.4118395,85.6246292 Z" id="Shape" fill="#FFFFFF"></path>
                        <path d="M108.907491,96.8564186 C108.631732,97.2620625 108.218092,97.6677063 107.942332,98.0733502 C108.355972,97.5324917 108.631732,97.1268478 108.907491,96.8564186 L108.907491,96.8564186 Z" id="Shape" fill="#FFFFFF"></path>
                        <path d="M108.769611,96.8564186 C108.493852,97.2620625 108.218092,97.6677063 107.942332,98.0733502 C108.218092,97.8029209 108.493852,97.3972771 108.769611,96.8564186 L108.769611,96.8564186 Z" id="Shape" fill="#FFFFFF"></path>
                        <path d="M94.5494727,90.4055762 C88.2069993,98.5184532 80.0720877,102.574892 75.2462927,103.656609 C74.2811337,100.817102 74.4190135,95.9493755 77.7281301,89.8647177 C74.4190135,95.8141609 71.2477768,105.143969 79.2448086,111.9047 C91.6539957,112.986417 101.305586,106.090472 106.6829,101.087531 C108.061699,99.8705994 109.026858,98.6536678 109.854137,97.7071655 C110.129897,97.3015216 110.543536,96.8958778 110.819296,96.4902339 C111.095056,96.0845901 111.370815,95.6789462 111.646575,95.2733024 C112.335974,94.3268001 113.163253,93.1098685 113.990533,91.6225077 C117.299649,85.6730646 120.470886,76.343256 112.473854,69.5825251 C100.064667,68.5008081 90.413077,75.3967536 85.0357626,80.3996945 C90.413077,75.261539 96.3419109,72.5572467 100.202547,71.6107443 C101.443466,75.261539 100.891946,82.2926991 94.5494727,90.4055762 L94.5494727,90.4055762 Z" id="Shape" fill="#F7FBFF"></path>
                        <path d="M121.70246,183.473107 L19.671365,183.473107 C16.775888,183.473107 14.5698103,181.174459 14.5698103,178.470166 L14.5698103,99.3696153 C14.5698103,96.5301083 16.9137679,94.3666744 19.671365,94.3666744 L121.70246,94.3666744 C124.597937,94.3666744 126.804014,96.6653229 126.804014,99.3696153 L126.804014,178.470166 C126.804014,181.309673 124.460057,183.473107 121.70246,183.473107 L121.70246,183.473107 Z" id="Shape" fill="#FFFFFF"></path>
                        <rect id="Rectangle-path" fill="#FFFFFF" x="6.78876682" y="94.3666744" width="126.987349" height="17.7131149"></rect>
                        <rect id="Rectangle-path" fill="#F7FBFF" x="61.2560713" y="94.3666744" width="17.372862" height="89.1064329"></rect>
                        <path d="M190.495288,51.4971778 L190.495288,51.4971778 C187.048292,54.8775432 181.395218,54.8775432 177.810341,51.4971778 L177.810341,51.4971778 C174.363345,48.1168124 174.363345,42.573013 177.810341,39.057433 L177.810341,39.057433 C181.257338,35.6770676 186.910412,35.6770676 190.495288,39.057433 L190.495288,39.057433 C193.942285,42.573013 193.942285,48.1168124 190.495288,51.4971778 L190.495288,51.4971778 Z" id="Shape" fill="#FFFFFF"></path>
                        <path d="M0.840699817,218.870073 L19.5923604,237.394476" id="Shape"></path>
                        <path d="M0.840699817,237.394476 L19.5923604,218.870073" id="Shape"></path>
                        <path d="M7.74822402,0.587589355 L26.4998846,18.9767773" id="Shape"></path>
                        <path d="M7.74822402,18.9767773 L26.4998846,0.587589355" id="Shape"></path>
                    </g>
                    <g id="Group-5" transform="translate(823.717319, 573.614007) rotate(22.000000) translate(-823.717319, -573.614007) translate(780.717319, 526.614007)" stroke="#C5DEFA">
                        <path d="M57.250869,39.0865418 L36.2690473,39.0865418 L36.2690473,24.8110918 C36.2690473,19.0566468 38.8775981,13.7448515 43.4142082,10.0929922 L55.5496402,0.244038285 C56.2301317,-0.309273731 57.3642842,0.133375882 57.3642842,1.01867511 L57.3642842,39.0865418 L57.250869,39.0865418 Z" id="Shape" fill="#FFFFFF"></path>
                        <rect id="Rectangle-path" fill="#F7FBFF" x="32.0021005" y="30.5648621" width="28.4672283" height="40.2811148"></rect>
                        <rect id="Rectangle-path" fill="#FFFFFF" x="29.8686272" y="52.9790942" width="33.4574994" height="40.05979"></rect>
                        <rect id="Rectangle-path" fill="#F7FBFF" x="29.8686272" y="75.3933264" width="33.4574994" height="4.09450892"></rect>
                        <polyline id="Rectangle-path" fill="#FFFFFF" points="70.4046212 7.59341711 76.0985864 2.03765747 81.7925517 7.59341711 76.0985864 13.1491768 70.4046212 7.59341711"></polyline>
                        <polyline id="Rectangle-path" fill="#FFFFFF" points="-9.09494702e-13 69.1863342 10.3453735 59.0920666 20.6907471 69.1863342 10.3453735 79.2806017 -9.09494702e-13 69.1863342"></polyline>
                        <path d="M14.9343136,14.2636023 L22.8733812,22.0099705" id="Shape"></path>
                        <path d="M14.9343136,22.0099705 L22.8733812,14.2636023" id="Shape"></path>
                        <path d="M70.4046212,57.0544092 L85.8290955,72.2151584" id="Shape"></path>
                        <path d="M70.4046212,72.2151584 L85.8290955,57.0544092" id="Shape"></path>
                    </g>
                    <g id="Group-10" transform="translate(346.241209, 178.252125) rotate(17.000000) translate(-346.241209, -178.252125) translate(293.741209, 142.252125)" stroke="#C5DEFA">
                        <path d="M37.7387851,38.6422853 L103.943069,38.6422853" id="Shape"></path>
                        <ellipse id="Oval" cx="37.3069958" cy="22.2606377" rx="0.965943535" ry="0.940756167"></ellipse>
                        <ellipse id="Oval" cx="103.729439" cy="45.5942117" rx="0.297213395" ry="0.289463436"></ellipse>
                        <path d="M33.5455867,34.6448075 L99.7498705,34.6448075" id="Shape"></path>
                        <ellipse id="Oval" cx="33.1137975" cy="18.2631599" rx="0.965943535" ry="0.940756167"></ellipse>
                        <ellipse id="Oval" cx="99.5362408" cy="40.2642413" rx="0.297213395" ry="0.289463436"></ellipse>
                        <path d="M33.5455867,38.6422853 L99.7498705,38.6422853" id="Shape"></path>
                        <ellipse id="Oval" cx="31.7160647" cy="22.2606377" rx="0.965943535" ry="0.940756167"></ellipse>
                        <ellipse id="Oval" cx="98.138508" cy="45.5942117" rx="0.297213395" ry="0.289463436"></ellipse>
                        <path d="M40.4012583,43.1821186 C40.4012583,42.7479234 40.4012583,42.3137283 40.3269549,41.8795331 L80.59937,41.8795331 C80.5250666,42.3137283 80.5250666,42.7479234 80.5250666,43.1821186 C80.5250666,49.4779483 85.8006044,54.6882902 92.3392991,54.6882902 C98.8036904,54.6882902 104.153532,49.5503142 104.153532,43.1821186 C104.153532,38.9848988 101.775824,35.29424 98.3578704,33.3403618 C101.850128,31.3141177 104.153532,27.6958248 104.153532,23.4986049 L104.153532,23.4986049 C104.153532,17.2027752 98.8779938,11.9924334 92.3392991,11.9924334 C85.8749078,11.9924334 80.5250666,17.1304094 80.5250666,23.4986049 L80.5250666,23.4986049 C80.5250666,23.9328001 80.5250666,24.3669953 80.59937,24.8011904 L40.3269549,24.8011904 C40.4012583,24.3669953 40.4012583,23.9328001 40.4012583,23.4986049 L40.4012583,23.4986049 C40.4012583,17.2027752 35.1257205,11.9924334 28.5870258,11.9924334 C22.1226345,11.9924334 16.7727934,17.1304094 16.7727934,23.4986049 L16.7727934,23.4986049 C16.7727934,27.6958248 19.1505005,31.3864836 22.5684546,33.3403618 C19.0761972,35.3666058 16.7727934,38.9848988 16.7727934,43.1821186 C16.7727934,49.4779483 22.0483311,54.6882902 28.5870258,54.6882902 C35.1257205,54.6882902 40.4012583,49.5503142 40.4012583,43.1821186 L40.4012583,43.1821186 Z" id="Shape" fill="#FFFFFF"></path>
                        <path d="M27.9546556,34.6448075 L94.1589394,34.6448075" id="Shape"></path>
                        <ellipse id="Oval" cx="27.5228664" cy="18.2631599" rx="0.965943535" ry="0.940756167"></ellipse>
                        <ellipse id="Oval" cx="93.9453096" cy="40.2642413" rx="0.297213395" ry="0.289463436"></ellipse>
                        <path d="M24.9659252,50.3733021 L1.85758372,52.3271803 L0,31.2687153 L23.1083415,29.3148371 L23.5541616,29.3148371 C23.9999817,29.3148371 24.3714984,29.4595688 24.7430152,29.7490323 L34.3281472,37.6369109 C35.145484,38.2882036 35.2940907,39.5184232 34.5510572,40.3144477 L26.4519922,49.6496435 C26.1547788,50.0114728 25.783262,50.1562045 25.4117453,50.3009362 C25.2631386,50.3733021 25.1145319,50.3733021 24.9659252,50.3733021 L24.9659252,50.3733021 Z M27.5665424,41.8341307 C28.9040027,41.689399 29.9442496,40.5315453 29.8699462,39.2289598 C29.7213395,37.9263743 28.5324859,36.9132523 27.1950257,36.9856182 C25.8575654,37.1303499 24.8173185,38.2882036 24.8916219,39.5907891 C25.0402286,40.9657404 26.2290821,41.9788625 27.5665424,41.8341307 L27.5665424,41.8341307 Z" id="Shape" fill="#F7FBFF"></path>
                        <path d="M44.5701482,8.01451888 L44.5701482,8.01451888 C42.7125644,9.82366536 39.6661271,9.82366536 37.7342401,8.01451888 L37.7342401,8.01451888 C35.8766563,6.20537241 35.8766563,3.23837219 37.7342401,1.35685986 L37.7342401,1.35685986 C39.5918238,-0.452286619 42.6382611,-0.452286619 44.5701482,1.35685986 L44.5701482,1.35685986 C46.5020352,3.23837219 46.5020352,6.20537241 44.5701482,8.01451888 L44.5701482,8.01451888 Z" id="Shape" fill="#FFFFFF"></path>
                        <polyline id="Rectangle-path" fill="#FFFFFF" points="77.7388962 58.6296743 84.8250708 64.9158944 78.3705463 71.817294 71.2843718 65.5310739 77.7388962 58.6296743"></polyline>
                        <path d="M64.2957079,5.32997039 L69.5712456,10.4679464" id="Shape"></path>
                        <path d="M64.2957079,10.4679464 L69.5712456,5.32997039" id="Shape"></path>
                        <path d="M46.1251817,53.2997039 L56.2304372,63.1414607" id="Shape"></path>
                        <path d="M46.1251817,63.1414607 L56.2304372,53.2997039" id="Shape"></path>
                    </g>
                    <g id="Group-7" transform="translate(853.334401, 121.710562) rotate(13.000000) translate(-853.334401, -121.710562) translate(767.334401, 53.710562)" stroke="#C5DEFA">
                        <polyline id="Rectangle-path" fill="#FFFFFF" points="133.565614 17.7551732 145.481615 5.88869434 157.397617 17.7551732 145.481615 29.6216522 133.565614 17.7551732"></polyline>
                        <path d="M24.5863101,102.73799 L24.5863101,102.73799 C21.3204629,105.990265 15.9644736,105.990265 12.5679925,102.73799 L12.5679925,102.73799 C9.30214529,99.485716 9.30214529,94.1519861 12.5679925,90.7696208 L12.5679925,90.7696208 C15.8338397,87.5173465 21.1898291,87.5173465 24.5863101,90.7696208 L24.5863101,90.7696208 C27.8521573,94.1519861 27.8521573,99.485716 24.5863101,102.73799 L24.5863101,102.73799 Z" id="Shape" fill="#FFFFFF"></path>
                        <path d="M161.897713,105.996498 L171.042086,115.232957" id="Shape"></path>
                        <path d="M161.897713,115.232957 L171.042086,105.996498" id="Shape"></path>
                        <path d="M-9.61897229e-13,54.9611472 L9.14437212,64.0675152" id="Shape"></path>
                        <path d="M-9.61897229e-13,64.0675152 L9.14437212,54.9611472" id="Shape"></path>
                        <path d="M81.4093868,132.225518 L81.1481191,132.225518 C77.751638,132.225518 74.8776925,129.493608 74.8776925,125.981152 L74.8776925,125.981152 C74.8776925,122.598786 77.6210041,119.736785 81.1481191,119.736785 L81.4093868,119.736785 C84.8058679,119.736785 87.6798134,122.468695 87.6798134,125.981152 L87.6798134,125.981152 C87.6798134,129.363517 84.8058679,132.225518 81.4093868,132.225518 L81.4093868,132.225518 Z" id="Shape" fill="#FFFFFF"></path>
                        <path d="M69.0766267,59.8616921 L69.0766267,55.56869 L69.0766267,55.56869 L61.8917629,25.5176755 L61.8917629,25.5176755 L57.5808446,25.5176755 L54.837533,25.5176755 C53.661828,25.5176755 52.6167569,26.4283123 52.6167569,27.599131 L52.6167569,27.599131 C52.6167569,28.7699498 53.5311941,29.6805866 54.837533,29.6805866 L58.6259157,29.6805866 L64.8963423,55.56869 L64.8963423,55.56869 L64.8963423,59.7316012 L64.8963423,62.5936025 L64.8963423,63.8945123 L100.820661,63.8945123 L100.820661,63.8945123 C100.820661,61.5528748 98.861153,59.6015102 96.5097431,59.6015102 L69.0766267,59.6015102 L69.0766267,59.8616921 Z" id="Shape" fill="#FFFFFF"></path>
                        <ellipse id="Oval" fill="#FFFFFF" cx="67.1769161" cy="67.1057417" rx="4.44155217" ry="4.29300208"></ellipse>
                        <ellipse id="Oval" fill="#FFFFFF" cx="97.5327374" cy="67.1057417" rx="4.44155217" ry="4.29300208"></ellipse>
                        <path d="M94.2845516,55.6032906 L66.5901675,55.6032906 L60.7116425,31.4063698 L105.519066,31.4063698 C105.780334,31.4063698 105.910968,31.6665518 105.910968,31.7966427 L103.559558,47.5376504 C102.906388,52.2209254 98.9873716,55.6032906 94.2845516,55.6032906 L94.2845516,55.6032906 Z" id="Shape" fill="#FFFFFF"></path>
                        <rect id="Rectangle-path" fill="#FFFFFF" x="58.6879211" y="80.4788227" width="44.2848878" height="16.0011896"></rect>
                        <ellipse id="Oval" fill="#FFFFFF" cx="133.505816" cy="74.6625516" rx="10.0588093" ry="9.88691388"></ellipse>
                        <ellipse id="Oval" fill="#FFFFFF" cx="121.363487" cy="74.6625516" rx="10.0588093" ry="9.88691388"></ellipse>
                        <path d="M126.145974,102.024568 L86.5639062,102.024568 C85.649469,102.024568 84.9962996,101.244022 84.9962996,100.463476 L84.9962996,95.7802011 C84.9962996,94.8695643 85.7801029,94.2191094 86.5639062,94.2191094 L126.145974,94.2191094 C127.060411,94.2191094 127.713581,94.9996553 127.713581,95.7802011 L127.713581,100.463476 C127.844215,101.244022 127.060411,102.024568 126.145974,102.024568 L126.145974,102.024568 Z" id="Shape" fill="#FFFFFF"></path>
                        <path d="M98.9364045,135.424702 L44.7233412,135.424702 C38.9754502,135.424702 34.4032641,130.871518 34.4032641,125.147515 L34.4032641,10.2771868 C34.4032641,4.55318403 38.9754502,3.26849658e-13 44.7233412,3.26849658e-13 L98.9364045,3.26849658e-13 C104.684296,3.26849658e-13 109.256482,4.55318403 109.256482,10.2771868 L109.256482,125.147515 C109.256482,130.871518 104.684296,135.424702 98.9364045,135.424702 L98.9364045,135.424702 Z" id="Shape" fill="#F7FBFF"></path>
                        <rect id="Rectangle-path" fill="#FFFFFF" x="40.4744284" y="13.7402868" width="63.879971" height="101.470958"></rect>
                        <path d="M71.2907798,132.225518 L71.029512,132.225518 C67.6330309,132.225518 64.7590854,129.493608 64.7590854,125.981152 L64.7590854,125.981152 C64.7590854,122.598786 67.502397,119.736785 71.029512,119.736785 L71.2907798,119.736785 C74.6872608,119.736785 77.5612063,122.468695 77.5612063,125.981152 L77.5612063,125.981152 C77.5612063,129.363517 74.6872608,132.225518 71.2907798,132.225518 L71.2907798,132.225518 Z" id="Shape" fill="#F7FBFF"></path>
                        <path d="M60.981741,59.8616921 L60.981741,55.56869 L60.981741,55.56869 L53.7968772,25.5176755 L53.7968772,25.5176755 L49.4859589,25.5176755 L46.7426473,25.5176755 C45.5669423,25.5176755 44.5218712,26.4283123 44.5218712,27.599131 L44.5218712,27.599131 C44.5218712,28.7699498 45.4363084,29.6805866 46.7426473,29.6805866 L50.53103,29.6805866 L56.8014566,55.56869 L56.8014566,55.56869 L56.8014566,59.7316012 L56.8014566,62.5936025 L56.8014566,63.8945123 L92.7257757,63.8945123 L92.7257757,63.8945123 C92.7257757,61.5528748 90.7662674,59.6015102 88.4148574,59.6015102 L60.981741,59.6015102 L60.981741,59.8616921 Z" id="Shape" fill="#FFFFFF"></path>
                        <ellipse id="Oval" fill="#FFFFFF" cx="61.1057519" cy="67.1057417" rx="4.44155217" ry="4.29300208"></ellipse>
                        <ellipse id="Oval" fill="#FFFFFF" cx="89.4378517" cy="67.1057417" rx="4.44155217" ry="4.29300208"></ellipse>
                        <path d="M84.1659445,55.6032906 L56.4715604,55.6032906 L50.5930355,31.4063698 L95.4004589,31.4063698 C95.6617266,31.4063698 95.7923605,31.6665518 95.7923605,31.7966427 L93.4409505,47.5376504 C92.7877811,52.2209254 88.8687645,55.6032906 84.1659445,55.6032906 L84.1659445,55.6032906 Z" id="Shape" fill="#FFFFFF"></path>
                        <rect id="Rectangle-path" fill="#F7FBFF" x="48.569314" y="80.4788227" width="44.2848878" height="16.0011896"></rect>
                        <path d="M140.982855,105.696626 L75.0127417,105.696626 C70.4405556,105.696626 66.7828068,102.054079 66.7828068,97.5008951 L66.7828068,63.1568784 C66.7828068,58.6036944 70.4405556,54.9611472 75.0127417,54.9611472 L140.982855,54.9611472 C145.555041,54.9611472 149.21279,58.6036944 149.21279,63.1568784 L149.21279,97.5008951 C149.21279,102.054079 145.555041,105.696626 140.982855,105.696626 L140.982855,105.696626 Z" id="Shape" fill="#FFFFFF"></path>
                        <ellipse id="Oval" fill="#F7FBFF" cx="133.505816" cy="74.6625516" rx="10.0588093" ry="9.88691388"></ellipse>
                        <ellipse id="Oval" fill="#FFFFFF" cx="125.41093" cy="74.6625516" rx="10.0588093" ry="9.88691388"></ellipse>
                        <ellipse id="Oval" fill="#F7FBFF" cx="113.268602" cy="74.6625516" rx="10.0588093" ry="9.88691388"></ellipse>
                        <path d="M116.027367,102.024568 L76.4452991,102.024568 C75.5308619,102.024568 74.8776925,101.244022 74.8776925,100.463476 L74.8776925,95.7802011 C74.8776925,94.8695643 75.6614958,94.2191094 76.4452991,94.2191094 L116.027367,94.2191094 C116.941804,94.2191094 117.594974,94.9996553 117.594974,95.7802011 L117.594974,100.463476 C117.725608,101.244022 116.941804,102.024568 116.027367,102.024568 L116.027367,102.024568 Z" id="Shape" fill="#F7FBFF"></path>
                        <path d="M141.802172,102.28475 L123.121526,102.28475 C122.207088,102.28475 121.423285,101.504204 121.423285,100.593567 L121.423285,95.9102921 C121.423285,94.9996553 122.207088,94.2191094 123.121526,94.2191094 L141.802172,94.2191094 C142.716609,94.2191094 143.500412,94.9996553 143.500412,95.9102921 L143.500412,100.593567 C143.369778,101.504204 142.716609,102.28475 141.802172,102.28475 L141.802172,102.28475 Z" id="Shape" fill="#F7FBFF"></path>
                    </g>
                    <g id="Group-7" transform="translate(1087.956576, 542.914462) rotate(-21.000000) translate(-1087.956576, -542.914462) translate(1003.956576, 477.914462)" stroke="#C5DEFA">
                        <polyline id="Rectangle-path" fill="#FFFFFF" points="2.30217343 20.8563548 14.0030698 9.46780168 25.7039663 20.8563548 14.0030698 32.2449078 2.30217343 20.8563548"></polyline>
                        <path d="M130.036501,94.8806669 L130.036501,94.8806669 C126.829608,98.0019549 121.570304,98.0019549 118.235135,94.8806669 L118.235135,94.8806669 C115.028243,91.7593789 115.028243,86.6404665 118.235135,83.3943269 L118.235135,83.3943269 C121.442028,80.2730389 126.701332,80.2730389 130.036501,83.3943269 L130.036501,83.3943269 C133.243393,86.6404665 133.243393,91.7593789 130.036501,94.8806669 L130.036501,94.8806669 Z" id="Shape" fill="#FFFFFF"></path>
                        <path d="M158.975166,101.727459 L167.954465,110.591917" id="Shape"></path>
                        <path d="M158.975166,110.591917 L167.954465,101.727459" id="Shape"></path>
                        <path d="M-1.45483625e-12,52.7475713 L8.97929961,61.4871777" id="Shape"></path>
                        <path d="M-1.45483625e-12,61.4871777 L8.97929961,52.7475713" id="Shape"></path>
                        <path d="M79.9397996,126.900098 L79.6832482,126.900098 C76.3480798,126.900098 73.5260142,124.278216 73.5260142,120.907225 L73.5260142,120.907225 C73.5260142,117.661085 76.2198041,114.914352 79.6832482,114.914352 L79.9397996,114.914352 C83.274968,114.914352 86.0970336,117.536234 86.0970336,120.907225 L86.0970336,120.907225 C86.0970336,124.153364 83.274968,126.900098 79.9397996,126.900098 L79.9397996,126.900098 Z" id="Shape" fill="#FFFFFF"></path>
                        <path d="M67.8296682,57.4507454 L67.8296682,53.3306452 L67.8296682,53.3306452 L60.7745042,24.4899438 L60.7745042,24.4899438 L56.5414058,24.4899438 L53.8476159,24.4899438 C52.6931346,24.4899438 51.6669289,25.3639044 51.6669289,26.4875681 L51.6669289,26.4875681 C51.6669289,27.6112318 52.5648589,28.4851925 53.8476159,28.4851925 L57.5676115,28.4851925 L63.7248455,53.3306452 L63.7248455,53.3306452 L63.7248455,57.3258938 L63.7248455,60.0726273 L63.7248455,61.3211425 L99.0006654,61.3211425 L99.0006654,61.3211425 C99.0006654,59.0738151 97.0765298,57.2010423 94.767567,57.2010423 L67.8296682,57.2010423 L67.8296682,57.4507454 Z" id="Shape" fill="#FFFFFF"></path>
                        <ellipse id="Oval" fill="#FFFFFF" cx="65.9642508" cy="64.4030388" rx="4.36137409" ry="4.12010019"></ellipse>
                        <ellipse id="Oval" fill="#FFFFFF" cx="95.7720944" cy="64.4030388" rx="4.36137409" ry="4.12010019"></ellipse>
                        <path d="M92.5825443,53.3638522 L65.3880941,53.3638522 L59.6156872,30.1414693 L103.614255,30.1414693 C103.870807,30.1414693 103.999082,30.3911723 103.999082,30.5160239 L101.69012,45.6230579 C101.048741,50.1177127 97.2004698,53.3638522 92.5825443,53.3638522 L92.5825443,53.3638522 Z" id="Shape" fill="#FFFFFF"></path>
                        <rect id="Rectangle-path" fill="#FFFFFF" x="57.6284976" y="77.2375151" width="43.4854652" height="15.3567371"></rect>
                        <path d="M97.1504228,129.970433 L43.9160037,129.970433 C38.2718725,129.970433 33.7822227,125.60063 33.7822227,120.107163 L33.7822227,9.86327016 C33.7822227,4.36980324 38.2718725,1.42108547e-14 43.9160037,1.42108547e-14 L97.1504228,1.42108547e-14 C102.794554,1.42108547e-14 107.284204,4.36980324 107.284204,9.86327016 L107.284204,120.107163 C107.284204,125.60063 102.794554,129.970433 97.1504228,129.970433 L97.1504228,129.970433 Z" id="Shape" fill="#F6FAFF"></path>
                        <rect id="Rectangle-path" fill="#FFFFFF" x="39.7437915" y="13.1868928" width="62.7268215" height="97.3841864"></rect>
                        <path d="M70.0038518,126.900098 L69.7473003,126.900098 C66.4121319,126.900098 63.5900663,124.278216 63.5900663,120.907225 L63.5900663,120.907225 C63.5900663,117.661085 66.2838562,114.914352 69.7473003,114.914352 L70.0038518,114.914352 C73.3390202,114.914352 76.1610858,117.536234 76.1610858,120.907225 L76.1610858,120.907225 C76.1610858,124.153364 73.3390202,126.900098 70.0038518,126.900098 L70.0038518,126.900098 Z" id="Shape" fill="#FFFFFF"></path>
                        <path d="M59.8809099,57.4507454 L59.8809099,53.3306452 L59.8809099,53.3306452 L52.8257459,24.4899438 L52.8257459,24.4899438 L48.5926475,24.4899438 L45.8988576,24.4899438 C44.7443763,24.4899438 43.7181706,25.3639044 43.7181706,26.4875681 L43.7181706,26.4875681 C43.7181706,27.6112318 44.6161006,28.4851925 45.8988576,28.4851925 L49.6188532,28.4851925 L55.7760872,53.3306452 L55.7760872,53.3306452 L55.7760872,57.3258938 L55.7760872,60.0726273 L55.7760872,61.3211425 L91.0519071,61.3211425 L91.0519071,61.3211425 C91.0519071,59.0738151 89.1277715,57.2010423 86.8188087,57.2010423 L59.8809099,57.2010423 L59.8809099,57.4507454 Z" id="Shape" fill="#FFFFFF"></path>
                        <ellipse id="Oval" fill="#FFFFFF" cx="60.0026821" cy="64.4030388" rx="4.36137409" ry="4.12010019"></ellipse>
                        <ellipse id="Oval" fill="#FFFFFF" cx="87.8233361" cy="64.4030388" rx="4.36137409" ry="4.12010019"></ellipse>
                        <path d="M82.6465964,53.3638522 L55.4521462,53.3638522 L49.6797393,30.1414693 L93.6783074,30.1414693 C93.9348588,30.1414693 94.0631345,30.3911723 94.0631345,30.5160239 L91.7541718,45.6230579 C91.1127932,50.1177127 87.264522,53.3638522 82.6465964,53.3638522 L82.6465964,53.3638522 Z" id="Shape" fill="#FFFFFF"></path>
                        <rect id="Rectangle-path" fill="#F6FAFF" x="47.6925497" y="77.2375151" width="43.4854652" height="15.3567371"></rect>
                    </g>
                    <g id="Group" transform="translate(552.327627, 136.970995) rotate(-370.000000) translate(-552.327627, -136.970995) translate(474.327627, 68.470995)" stroke="#C5DEFA">
                        <path d="M102.276595,134.831058 L124.912329,134.831058" id="Shape"></path>
                        <path d="M128.777323,130.342875 C128.777323,133.403021 126.447174,135.916712 120.8992,135.916712 L93.6031674,135.916712 C87.3894364,135.916712 76.7373262,132.528693 70.9674332,124.769039 L75.1838935,124.769039 L128.777323,124.769039 L128.777323,130.342875 L128.777323,130.342875 Z" id="Shape" fill="#FFFFFF"></path>
                        <path d="M129.722018,124.66302 C129.722018,124.66302 130.942572,130.67402 45.8366498,124.66302 C45.7256903,124.66302 45.6147308,124.553729 45.6147308,124.444438 L47.279123,99.3075281 L47.279123,97.5588735 L35.517418,17.4486339 C35.0735801,12.4212519 39.0681214,8.04961539 44.283217,8.04961539 L94.1040241,8.04961539 C96.9889706,8.04961539 99.2081603,10.4540155 98.8752818,13.2955792 L92.6615509,74.9356544 C90.1094828,90.564255 94.769781,98.3239099 102.647904,104.007037 C110.747946,110.018038 129.611058,105.209237 129.722018,124.66302 L129.722018,124.66302 L129.722018,124.66302 Z" id="Shape" fill="#FFFFFF"></path>
                        <path d="M100.748844,56.7481954 L67.017162,56.7481954 L33.3964391,56.7481954 L33.3964391,14.1247391 C33.3964391,9.64381168 36.6142641,6.03721154 40.6088054,6.03721154 L93.6474375,6.03721154 C97.6419788,6.03721154 100.859804,9.64381168 100.859804,14.1247391 L100.859804,56.7481954 L100.748844,56.7481954 Z" id="Shape" fill="#FFFFFF"></path>
                        <rect id="Rectangle-path" fill="#F7FBFF" x="37.570994" y="124.769039" width="28.0734505" height="11.1476732"></rect>
                        <path d="M121.372908,124.66302 C121.372908,124.66302 122.593462,130.67402 37.48754,124.66302 C37.3765805,124.66302 37.265621,124.553729 37.265621,124.444438 L38.9300132,99.3075281 L38.9300132,97.5588735 L27.1683082,17.4486339 C26.7244703,12.4212519 30.7190116,8.04961539 35.9341072,8.04961539 L85.7549143,8.04961539 C88.6398608,8.04961539 90.8590505,10.4540155 90.526172,13.2955792 L84.3124411,74.9356544 C81.760373,90.564255 86.4206712,98.3239099 94.2987944,104.007037 C102.398837,110.018038 121.261948,105.209237 121.372908,124.66302 L121.372908,124.66302 L121.372908,124.66302 Z" id="Shape" fill="#FFFFFF"></path>
                        <path d="M92.3997345,56.7481954 L58.6680522,56.7481954 L25.0473294,56.7481954 L25.0473294,14.1247391 C25.0473294,9.64381168 28.2651543,6.03721154 32.2596956,6.03721154 L85.2983277,6.03721154 C89.292869,6.03721154 92.510694,9.64381168 92.510694,14.1247391 L92.510694,56.7481954 L92.3997345,56.7481954 Z" id="Shape" fill="#F7FBFF"></path>
                        <path d="M63.1459721,24.0440009 L58.8185523,24.0440009 C56.2664843,24.0440009 54.2692136,21.9674736 54.2692136,19.5630735 L54.2692136,2.43183251e-12 L67.8062703,2.43183251e-12 L67.8062703,19.4537826 C67.8062703,21.9674736 65.6980402,24.0440009 63.1459721,24.0440009 L63.1459721,24.0440009 Z" id="Shape" fill="#FFFFFF"></path>
                        <rect id="Rectangle-path" fill="#F7FBFF" x="64.7056008" y="124.769039" width="25.4097212" height="11.1476732"></rect>
                        <path d="M149.650097,130.342875 C149.650097,133.403021 147.319948,135.916712 141.771974,135.916712 L114.475942,135.916712 C108.262211,135.916712 97.6101007,132.528693 91.8402077,124.769039 L96.0566679,124.769039 L149.650097,124.769039 L149.650097,130.342875 L149.650097,130.342875 Z" id="Shape" fill="#F7FBFF"></path>
                        <path d="M148.507515,124.66302 C148.507515,124.66302 149.728069,130.67402 64.6221468,124.66302 C64.5111873,124.66302 64.4002278,124.553729 64.4002278,124.444438 L66.06462,99.3075281 L66.06462,97.5588735 L54.302915,17.4486339 C53.8590771,12.4212519 57.8536184,8.04961539 63.0687141,8.04961539 L112.889521,8.04961539 C115.774468,8.04961539 117.993657,10.4540155 117.660779,13.2955792 L111.447048,74.9356544 C108.89498,90.564255 113.555278,98.3239099 121.433401,104.007037 C129.533443,110.018038 148.396555,105.209237 148.507515,124.66302 L148.507515,124.66302 L148.507515,124.66302 Z" id="Shape" fill="#FFFFFF"></path>
                        <path d="M119.534341,56.7481954 L85.802659,56.7481954 L52.1819362,56.7481954 L52.1819362,14.1247391 C52.1819362,9.64381168 55.3997611,6.03721154 59.3943024,6.03721154 L112.432934,6.03721154 C116.427476,6.03721154 119.645301,9.64381168 119.645301,14.1247391 L119.645301,56.7481954 L119.534341,56.7481954 Z" id="Shape" fill="#F7FBFF"></path>
                        <path d="M90.2805789,24.0440009 L85.9531592,24.0440009 C83.4010911,24.0440009 81.4038204,21.9674736 81.4038204,19.5630735 L81.4038204,4.8316906e-13 L94.9408771,4.8316906e-13 L94.9408771,19.4537826 C94.8299177,21.9674736 92.832647,24.0440009 90.2805789,24.0440009 L90.2805789,24.0440009 Z" id="Shape" fill="#FFFFFF"></path>
                        <path d="M113.222866,30.8418032 L132.418857,46.6889856 L117.328367,64.3941136 L98.132377,48.5469312 C98.0214175,48.4376402 97.910458,48.3283493 97.7994986,48.2190584 C97.4666201,47.8911857 97.3556606,47.454022 97.2447012,47.0168584 L96.0241469,33.6833669 C95.9131874,32.5904578 96.8008632,31.4975487 97.910458,31.3882578 L111.447515,30.1860577 C111.891353,30.1860577 112.335191,30.2953486 112.779029,30.5139304 C113.000947,30.6232214 113.111907,30.7325123 113.222866,30.8418032 L113.222866,30.8418032 Z M105.566662,36.1970579 C104.457067,35.2134397 102.681716,35.4320216 101.79404,36.5249307 C100.795405,37.6178398 101.017324,39.3664944 102.126918,40.2408217 C103.236513,41.22444 105.011865,41.0058581 105.899541,39.912949 C106.787217,38.8200399 106.676257,37.1806762 105.566662,36.1970579 L105.566662,36.1970579 Z" id="Shape" fill="#F7FBFF"></path>
                        <polyline id="Rectangle-path" fill="#FFFFFF" points="6.26183234 106.564549 16.3831984 96.5953847 26.5045644 106.564549 16.3831984 116.533714 6.26183234 106.564549"></polyline>
                        <path d="M1.19015908e-13,32.1984616 L15.2014489,47.0620258" id="Shape"></path>
                        <path d="M1.19015908e-13,47.0620258 L15.2014489,32.1984616" id="Shape"></path>
                        <path d="M139.847589,70.4341346 L155.049038,85.2976989" id="Shape"></path>
                        <path d="M139.847589,85.2976989 L155.049038,70.4341346" id="Shape"></path>
                    </g>
                    <g id="Group-12" transform="translate(1168.547318, 98.573977) rotate(18.000000) translate(-1168.547318, -98.573977) translate(1087.047318, 21.573977)" stroke="#C5DEFA">
                        <path d="M28.9017816,144.214903 L105.893652,144.214903 C111.374862,144.214903 115.836311,139.803757 115.836311,134.38435 L115.836311,55.3618322 C115.836311,50.446556 111.757272,46.4135088 106.785942,46.4135088 L37.8246806,46.4135088 C32.8533512,46.4135088 28.7743117,50.446556 28.7743117,55.3618322 L28.7743117,144.214903 L28.9017816,144.214903 Z" id="Shape" fill="#F6FAFF"></path>
                        <path d="M75.2937382,62.2550389 L133.802461,62.2550389 L123.349922,49.903832 C111.495214,35.7881669 75.2937382,27.8481053 75.2937382,27.8481053 L75.2937382,27.8481053 L75.2937382,27.8481053 C75.2937382,27.8481053 39.0922625,35.7881669 27.2375539,49.903832 L16.7850151,62.2550389 L75.2937382,62.2550389 L75.2937382,62.2550389 Z" id="Shape"></path>
                        <path d="M28.7743117,55.6962106 L28.7743117,148.330263 C28.7743117,151.481081 31.4511813,153.875703 34.7654009,153.875703 L100.539913,153.875703 C103.854133,153.875703 106.531002,151.355048 106.531002,148.330263 L106.531002,55.6962106" id="Shape" fill="#F6FAFF"></path>
                        <path d="M83.607759,9.32642157 C83.607759,4.15907989 79.4012495,-5.1159077e-13 74.1749801,-5.1159077e-13 C68.9487107,-5.1159077e-13 64.7422012,4.15907989 64.7422012,9.32642157 C64.7422012,14.4937633 68.9487107,18.6528431 74.1749801,18.6528431 L74.1749801,19.6611049 L74.1749801,28.8614938" id="Shape"></path>
                        <path d="M160.386718,92.8610892 L160.386718,92.8610892 C157.199969,96.0119073 151.973699,96.0119073 148.65948,92.8610892 L148.65948,92.8610892 C145.47273,89.7102711 145.47273,84.5429294 148.65948,81.2660786 L148.65948,81.2660786 C151.846229,78.1152605 157.072499,78.1152605 160.386718,81.2660786 L160.386718,81.2660786 C163.573468,84.5429294 163.573468,89.7102711 160.386718,92.8610892 L160.386718,92.8610892 Z" id="Shape" fill="#FFFFFF"></path>
                        <polyline id="Rectangle-path" fill="#FFFFFF" points="3.32178729e-13 85.7579127 11.6274009 74.2616141 23.2548018 85.7579127 11.6274009 97.2542113 3.32178729e-13 85.7579127"></polyline>
                        <path d="M131.882262,125.316474 L140.932631,134.138764" id="Shape"></path>
                        <path d="M131.882262,134.138764 L140.932631,125.316474" id="Shape"></path>
                        <path d="M100.710091,6.96202632 L118.046009,24.1024768" id="Shape"></path>
                        <path d="M100.710091,24.1024768 L118.046009,6.96202632" id="Shape"></path>
                    </g>
                    <g id="Group-3" transform="translate(531.556605, 561.166276) rotate(-371.000000) translate(-531.556605, -561.166276) translate(437.056605, 479.666276)" stroke="#C5DEFA">
                        <path d="M101.917638,132.374174 L120.661755,132.374174" id="Shape"></path>
                        <path d="M76.3257946,20.1076054 L76.3257946,129.110864" id="Shape"></path>
                        <path d="M115.611094,131.6647 L47.8904127,131.6647 L47.8904127,14.6311874 L115.611094,14.6311874 C126.797099,14.6311874 135.866833,23.5536916 135.866833,34.5581133 L135.866833,111.737774 C135.715671,122.742196 126.645937,131.6647 115.611094,131.6647 L115.611094,131.6647 Z" id="Shape" fill="#FFFFFF"></path>
                        <path d="M64.9516418,22.3269795 L64.9516418,124.099043" id="Shape"></path>
                        <polygon id="Shape" fill="#FFFFFF" points="110.448253 11.8929784 120.273798 11.8929784 120.273798 52.4903723 115.285444 47.7317034 110.448253 52.4903723"></polygon>
                        <path d="M127.757939,109.611849 L138.339296,152.588578 L98.432466,162.105916 L87.8511096,119.129187 C87.8511096,118.83177 87.6999473,118.534354 87.6999473,118.236937 C87.6999473,117.493395 87.8511096,116.601144 88.153434,116.006311 L100.397575,95.781968 C101.455711,93.9974672 103.723144,93.551342 105.385929,94.5923008 L125.641668,107.083807 C126.397479,107.529932 126.850966,108.124765 127.153291,108.868307 C127.606777,109.017016 127.757939,109.314433 127.757939,109.611849 L127.757939,109.611849 Z M110.978931,107.232515 C110.374282,104.704472 107.804525,103.06868 105.234767,103.663513 C102.665009,104.258347 101.153386,106.78639 101.758035,109.314433 C102.362684,111.842475 104.932442,113.478268 107.5022,112.883434 C110.071958,112.288601 111.58358,109.760558 110.978931,107.232515 L110.978931,107.232515 Z" id="Shape" fill="#F7FBFF"></path>
                        <path d="M17.0702186,35.4223152 L17.0702186,35.4223152 C13.2911627,39.1400252 7.09351112,39.1400252 3.16329303,35.4223152 L3.16329303,35.4223152 C-0.615762831,31.7046051 -0.615762831,25.6075606 3.16329303,21.7411421 L3.16329303,21.7411421 C6.94234889,18.023432 13.1400005,18.023432 17.0702186,21.7411421 L17.0702186,21.7411421 C20.8492745,25.6075606 20.8492745,31.7046051 17.0702186,35.4223152 L17.0702186,35.4223152 Z" id="Shape" fill="#FFFFFF"></path>
                        <polyline id="Rectangle-path" fill="#FFFFFF" points="160.84772 90.6449027 174.636252 77.0802018 188.424783 90.6449027 174.636252 104.209604 160.84772 90.6449027"></polyline>
                        <g id="Group-27" transform="translate(132.949797, 0.094001)">
                            <path d="M0.970361771,5.75539616e-13 L11.5517182,10.4095882" id="Shape"></path>
                            <path d="M0.970361771,10.4095882 L11.5517182,-1.13686838e-13" id="Shape"></path>
                        </g>
                        <path d="M13.7679544,85.8246211 L34.4771805,106.197672" id="Shape"></path>
                        <path d="M13.7679544,106.197672 L34.4771805,85.8246211" id="Shape"></path>
                    </g>
                    <g id="Group-2" transform="translate(1380.131923, 250.228201) rotate(-14.000000) translate(-1380.131923, -250.228201) translate(1204.631923, 123.728201)" stroke="#C5DEFA">
                        <path d="M162.379077,21.1110443 L197.887088,57.4818392 L179.057082,65.0371251 L154.309074,37.4515463 C148.749739,31.301895 153.05374,21.6381572 161.303076,21.2867486 L162.379077,21.1110443 L162.379077,21.1110443 Z" id="Shape" fill="#FFFFFF"></path>
                        <rect id="Rectangle-path" fill="#FFFFFF" x="182.167409" y="24.3463366" width="25.1066746" height="7.37958159"></rect>
                        <path d="M166.220573,116.874417 L161.378571,116.874417 C152.411902,116.874417 145.059233,109.67054 145.059233,100.885324 L145.059233,76.1110143 L182.539911,76.1110143 L182.539911,100.885324 C182.719245,109.67054 175.366576,116.874417 166.220573,116.874417 L166.220573,116.874417 Z" id="Shape" fill="#FFFFFF"></path>
                        <path d="M240.436925,116.874417 L235.594923,116.874417 C226.628254,116.874417 219.275585,109.67054 219.275585,100.885324 L219.275585,76.1110143 L256.756263,76.1110143 L256.756263,100.885324 C256.756263,109.67054 249.403594,116.874417 240.436925,116.874417 L240.436925,116.874417 Z" id="Shape" fill="#FFFFFF"></path>
                        <path d="M173.204561,186.110954 C173.204561,210.533855 153.119221,230.21274 128.19188,230.21274" id="Shape" fill="#FFFFFF"></path>
                        <path d="M219.275585,186.110954 C219.275585,210.533855 239.360924,230.21274 264.288265,230.21274" id="Shape" fill="#FFFFFF"></path>
                        <path d="M121.444939,176.405077 L160.898285,176.405077" id="Shape" fill="#FFFFFF"></path>
                        <rect id="Rectangle-path" fill="#FFFFFF" x="114.697998" y="27.581629" width="142.928712" height="188.003626"></rect>
                        <rect id="Rectangle-path" fill="#FFFFFF" x="148.432703" y="21.1110443" width="76.0373573" height="49.3729149"></rect>
                        <polygon id="Shape" fill="#FFFFFF" points="41.8624216 203.98877 10.1204116 183.607068 115.747778 27.581629 164.52646 62.1953807"></polygon>
                        <polygon id="Shape" fill="#FFFFFF" points="275.687861 149.169021 315.141206 121.232033 257.754522 27.581629 209.155173 62.1953807"></polygon>
                        <polygon id="Shape" fill="#FFFFFF" points="300.75685 59.9345525 266.504172 61.6915958 276.905509 150.773688 316.358854 123.012405"></polygon>
                        <rect id="Rectangle-path" fill="#F6FAFF" x="263.130701" y="59.9345525" width="45.1920143" height="17.5704324"></rect>
                        <polyline id="Rectangle-path" fill="#F6FAFF" points="-6.82121026e-13 186.99427 11.0685117 173.169785 47.7545666 201.365549 36.6860549 215.190034 -6.82121026e-13 186.99427"></polyline>
                        <path d="M114.081178,27.581629 L104.577586,238.251113 L161.964661,238.251113 C174.940719,238.251113 185.540879,228.060262 185.540879,215.585255 L185.540879,72.5619358 C185.540879,47.7876262 164.706082,27.581629 138.753965,27.581629 L114.081178,27.581629 L114.081178,27.581629 Z" id="Shape" fill="#FFFFFF"></path>
                        <path d="M257.991569,27.581629 L231.450227,27.581629 C206.164219,27.581629 185.540879,47.6119219 185.540879,72.5619358 L185.540879,215.585255 C185.540879,228.060262 195.942216,238.251113 208.674887,238.251113 L265.344238,238.251113 L257.991569,27.581629 L257.991569,27.581629 Z" id="Shape" fill="#FFFFFF"></path>
                        <path d="M148.885195,21.1110443 L184.393206,51.6108524 L165.5632,57.9465613 L140.815192,34.8138566 C135.255857,29.6568842 139.559858,21.5530705 147.809194,21.2583863 L148.885195,21.1110443 L148.885195,21.1110443 Z" id="Shape" fill="#F6FAFF"></path>
                        <path d="M221.04889,21.1110443 L185.540879,51.6108524 L204.370885,57.9465613 L229.118893,34.8138566 C234.678228,29.6568842 230.374227,21.5530705 222.124891,21.2583863 L221.04889,21.1110443 L221.04889,21.1110443 Z" id="Shape" fill="#F6FAFF"></path>
                        <rect id="Rectangle-path" fill="#F6FAFF" x="172.987542" y="24.3463366" width="25.1066746" height="7.37958159"></rect>
                        <path d="M152.726691,116.874417 L147.884689,116.874417 C138.91802,116.874417 131.565351,109.67054 131.565351,100.885324 L131.565351,76.1110143 L169.046029,76.1110143 L169.046029,100.885324 C169.225363,109.67054 161.872694,116.874417 152.726691,116.874417 L152.726691,116.874417 Z" id="Shape" fill="#F6FAFF"></path>
                        <path d="M226.943042,116.874417 L222.101041,116.874417 C213.134371,116.874417 205.781702,109.67054 205.781702,100.885324 L205.781702,76.1110143 L243.262381,76.1110143 L243.262381,100.885324 C243.262381,109.67054 235.909712,116.874417 226.943042,116.874417 L226.943042,116.874417 Z" id="Shape" fill="#F6FAFF"></path>
                        <path d="M159.710679,186.110954 C159.710679,210.533855 139.625339,230.21274 114.697998,230.21274" id="Shape" fill="#FFFFFF"></path>
                        <path d="M205.781702,186.110954 C205.781702,210.533855 225.867042,230.21274 250.794383,230.21274" id="Shape" fill="#FFFFFF"></path>
                        <ellipse id="Oval" fill="#FFFFFF" cx="192.321684" cy="170.037582" rx="3.40733441" ry="3.33838215"></ellipse>
                        <ellipse id="Oval" fill="#FFFFFF" cx="192.321684" cy="144.155244" rx="3.40733441" ry="3.33838215"></ellipse>
                        <ellipse id="Oval" fill="#FFFFFF" cx="192.321684" cy="118.272905" rx="3.40733441" ry="3.33838215"></ellipse>
                        <ellipse id="Oval" fill="#FFFFFF" cx="192.321684" cy="92.3905659" rx="3.40733441" ry="3.33838215"></ellipse>
                        <path d="M107.951057,176.405077 L147.404403,176.405077" id="Shape" fill="#FFFFFF"></path>
                        <path d="M222.649055,176.405077 L262.102401,176.405077" id="Shape" fill="#FFFFFF"></path>
                        <path d="M128.845308,225.848535 L106.607968,252.731296 L80.9632928,232.349595 L103.200633,205.466833 C103.379967,205.291129 103.5593,205.115424 103.738633,204.93972 C104.276633,204.588312 104.814634,204.236903 105.531967,204.236903 L124.541307,202.304155 C126.155307,202.128451 127.589974,203.358381 127.769308,204.93972 L129.741975,223.564378 C129.741975,224.267196 129.741975,224.794309 129.383308,225.321422 C129.024641,225.321422 128.845308,225.497126 128.845308,225.848535 L128.845308,225.848535 Z M120.416639,217.239023 C122.209972,215.130571 121.851306,211.967893 119.699305,210.21085 C117.547304,208.453807 114.319303,208.805215 112.525969,210.913667 C110.732636,213.022119 111.091302,216.184797 113.243303,217.94184 C115.574637,219.698883 118.623305,219.523179 120.416639,217.239023 L120.416639,217.239023 Z" id="Shape" fill="#F7FBFF"></path>
                        <path d="M80.9632928,192.581539 L93.6959635,204.880842" id="Shape"></path>
                        <path d="M80.9632928,204.880842 L93.6959635,192.581539" id="Shape"></path>
                        <path d="M276.624584,34.0522137 L285.94992,43.0131342" id="Shape"></path>
                        <path d="M276.624584,43.0131342 L285.94992,34.0522137" id="Shape"></path>
                    </g>
                    <g id="Group-11" transform="translate(125.355349, 178.252125) rotate(-15.000000) translate(-125.355349, -178.252125) translate(22.355349, 79.252125)" stroke="#C5DEFA">
                        <path d="M147.905557,88.6114054 C147.905557,92.4612973 131.139656,95.5091283 110.343491,95.5091283 C89.5473255,95.5091283 72.7814248,92.4612973 72.7814248,88.6114054" id="Shape" fill="#FFFFFF"></path>
                        <ellipse id="Oval" fill="#FFFFFF" cx="68.8120437" cy="149.771034" rx="2.09573758" ry="2.08535808"></ellipse>
                        <ellipse id="Oval" fill="#FFFFFF" cx="74.8771624" cy="114.326472" rx="2.09573758" ry="2.08535808"></ellipse>
                        <ellipse id="Oval" fill="#FFFFFF" cx="141.593469" cy="114.326472" rx="2.09573758" ry="2.08535808"></ellipse>
                        <polygon id="Shape" fill="#F6FAFF" points="127.200716 151.315386 63.6837467 115.864299 68.1976431 109.2874 131.553402 144.738487"></polygon>
                        <polygon id="Shape" fill="#F6FAFF" points="65.0038731 151.315386 128.520843 115.864299 124.168157 109.2874 60.6511874 144.738487"></polygon>
                        <path d="M50.5480471,197.154792 L47.6462566,197.154792 C46.1953613,197.154792 45.2280978,195.390258 45.550519,193.465312 L61.6715773,105.880273 C62.3164196,102.67203 65.0569996,100.42626 68.2812112,100.42626 L68.2812112,100.42626 C72.633897,100.42626 75.8581086,104.596976 74.7296345,108.767692 L52.4825741,195.229846 C52.1601529,196.352731 51.3541,197.154792 50.5480471,197.154792 L50.5480471,197.154792 Z" id="Shape" fill="#F6FAFF"></path>
                        <path d="M139.645853,197.154792 L142.547643,197.154792 C143.998539,197.154792 144.965802,195.390258 144.643381,193.465312 L128.522323,105.880273 C127.87748,102.67203 125.1369,100.42626 121.912689,100.42626 L121.912689,100.42626 C117.560003,100.42626 114.335791,104.596976 115.464265,108.767692 L137.711326,195.229846 C137.872536,196.352731 138.678589,197.154792 139.645853,197.154792 L139.645853,197.154792 Z" id="Shape" fill="#F6FAFF"></path>
                        <path d="M156.558455,77.8400007 C154.785138,71.4235143 149.948821,41.2660282 149.303978,37.4161363 C149.303978,37.095312 149.142768,36.9348998 149.142768,36.6140755 C146.88582,28.2726432 140.437396,14.1563731 131.409604,9.50442048 L127.70176,7.57947456 C108.35649,-2.52649152 85.1421662,-2.52649152 65.7968963,7.57947456 L62.0890528,9.50442048 C53.0612602,14.3167853 46.7740474,28.2726432 44.3558887,36.6140755 C44.1946781,36.9348998 44.1946781,37.095312 44.1946781,37.4161363 C43.5498358,41.2660282 38.7135183,71.4235143 36.9402019,77.8400007 C33.7159902,82.0107168 32.7487267,83.2940141 33.7159902,86.6626695 C35.328096,92.1166829 41.9377299,100.939352 49.1922062,100.939352 L68.0538444,105.430892 C86.7542721,109.922433 106.421963,109.922433 125.122391,105.430892 L143.984029,100.939352 C151.238505,100.939352 157.848139,91.9562707 159.460245,86.6626695 C160.74993,83.1336019 159.782666,82.0107168 156.558455,77.8400007 L156.558455,77.8400007 Z" id="Shape" fill="#FFFFFF"></path>
                        <path d="M135.775319,88.6114054 C135.775319,92.4612973 119.009418,95.5091283 98.2132532,95.5091283 C77.417088,95.5091283 60.6511874,92.4612973 60.6511874,88.6114054" id="Shape" fill="#FFFFFF"></path>
                        <ellipse id="Oval" fill="#FFFFFF" cx="56.6818062" cy="149.771034" rx="2.09573758" ry="2.08535808"></ellipse>
                        <ellipse id="Oval" fill="#FFFFFF" cx="62.7469249" cy="114.326472" rx="2.09573758" ry="2.08535808"></ellipse>
                        <ellipse id="Oval" fill="#FFFFFF" cx="135.52835" cy="149.771034" rx="2.09573758" ry="2.08535808"></ellipse>
                        <ellipse id="Oval" fill="#FFFFFF" cx="129.463231" cy="114.326472" rx="2.09573758" ry="2.08535808"></ellipse>
                        <path d="M158.450694,86.7610531 L161.030064,116.437303 L133.140633,118.843485 L130.400053,89.1672355 L130.400053,88.5255868 C130.400053,88.0443504 130.561263,87.4027017 131.044895,87.0818774 L141.523583,74.7301411 C142.490847,73.607256 143.941742,73.607256 145.070216,74.4093168 L157.483431,84.8361072 C157.967063,85.1569315 158.128273,85.638168 158.289484,86.1194044 C158.289484,86.4402288 158.450694,86.6006409 158.450694,86.7610531 L158.450694,86.7610531 Z M147.649585,85.3173436 C147.488375,83.5528099 145.876269,82.2695126 144.102952,82.4299248 C142.329636,82.5903369 141.039951,84.1944585 141.201162,85.9589923 C141.362372,87.723526 142.974478,89.0068233 144.747795,88.8464112 C146.521111,88.685999 147.810796,87.0818774 147.649585,85.3173436 L147.649585,85.3173436 Z" id="Shape" fill="#F6FAFF"></path>
                        <path d="M32.6489498,125.334113 L32.6489498,125.334113 C28.1350535,125.494525 24.4272101,122.12587 24.2659995,117.63433 L24.2659995,117.63433 C24.1047889,113.142789 27.4902111,109.453309 32.0041075,109.292897 L32.0041075,109.292897 C36.5180038,109.132485 40.2258472,112.50114 40.3870578,116.992681 L40.3870578,116.992681 C40.5482684,121.323809 37.1628461,125.173701 32.6489498,125.334113 L32.6489498,125.334113 Z" id="Shape" fill="#FFFFFF"></path>
                        <polyline id="Rectangle-path" fill="#FFFFFF" points="175.888443 147.549388 190.593553 132.917108 205.298662 147.549388 190.593553 162.181668 175.888443 147.549388"></polyline>
                        <path d="M5.61328761e-13,26.5834216 L11.2847408,37.972685" id="Shape"></path>
                        <path d="M5.61328761e-13,37.972685 L11.2847408,26.5834216" id="Shape"></path>
                    </g>
                </g>
            </g>
        </g>
    </g>
</svg>