<?xml version="1.0" encoding="UTF-8"?>
<svg width="584px" height="231px" viewBox="0 0 584 231" version="1.1" xmlns="http://www.w3.org/2000/svg" xmlns:xlink="http://www.w3.org/1999/xlink">
    <!-- Generator: Sketch 49 (51002) - http://www.bohemiancoding.com/sketch -->
    <title>Slice 1</title>
    <desc>Created with Sketch.</desc>
    <defs></defs>
    <g id="Page-1" stroke="none" stroke-width="1" fill="none" fill-rule="evenodd">
        <g id="Group-17" transform="translate(431.000000, 0.000000)" fill="#F6F6F6">
            <circle id="Oval-12" fill-opacity="0.300000012" cx="55" cy="35" r="3"></circle>
            <circle id="Oval-12-Copy" fill-opacity="0.300000012" cx="42" cy="35" r="3"></circle>
            <circle id="Oval-12-Copy-3" cx="28" cy="35" r="3"></circle>
            <circle id="Oval-12-Copy-4" fill-opacity="0.300000012" cx="16" cy="35" r="3"></circle>
            <circle id="Oval-12-Copy-5" cx="3" cy="35" r="3"></circle>
            <circle id="Oval-12-Copy" cx="42" cy="19" r="3"></circle>
            <circle id="Oval-12-Copy-3" fill-opacity="0.300000012" cx="28" cy="19" r="3"></circle>
            <circle id="Oval-12-Copy-4" fill-opacity="0.800000012" cx="16" cy="19" r="3"></circle>
            <circle id="Oval-12-Copy-3" cx="28" cy="67" r="3"></circle>
            <circle id="Oval-12-Copy-3" cx="28" cy="3" r="3"></circle>
            <circle id="Oval-12-Copy" fill-opacity="0.300000012" cx="42" cy="51" r="3"></circle>
            <circle id="Oval-12-Copy-3" fill-opacity="0.800000012" cx="28" cy="51" r="3"></circle>
            <circle id="Oval-12-Copy-4" fill-opacity="0.800000012" cx="16" cy="51" r="3"></circle>
        </g>
        <g id="Group-20" transform="translate(230.000000, 189.000000)" fill="#FFFFFF">
            <ellipse id="Oval-12" fill-opacity="0.599999964" cx="35.9361733" cy="20.5346326" rx="1.93617335" ry="1.94736842"></ellipse>
            <ellipse id="Oval-12-Copy" fill-opacity="0.599999964" cx="27.757226" cy="20.5346326" rx="1.93617335" ry="1.94736842"></ellipse>
            <ellipse id="Oval-12-Copy-3" cx="19.1888049" cy="20.5346326" rx="1.93617335" ry="1.94736842"></ellipse>
            <ellipse id="Oval-12-Copy-4" fill-opacity="0.599999964" cx="11.0098576" cy="20.5346326" rx="1.93617335" ry="1.94736842"></ellipse>
            <ellipse id="Oval-12-Copy-5" cx="2.83091019" cy="20.5346326" rx="1.93617335" ry="1.94736842"></ellipse>
            <ellipse id="Oval-12-Copy" fill-opacity="0.300000012" cx="27.757226" cy="11.2410005" rx="1.93617335" ry="1.94736842"></ellipse>
            <ellipse id="Oval-12-Copy-3" fill-opacity="0.300000012" cx="19.1888049" cy="11.2410005" rx="1.93617335" ry="1.94736842"></ellipse>
            <ellipse id="Oval-12-Copy-4" fill-opacity="0.300000012" cx="11.0098576" cy="11.2410005" rx="1.93617335" ry="1.94736842"></ellipse>
            <ellipse id="Oval-12-Copy-3" fill-opacity="0.300000012" cx="19.1888049" cy="39.1218967" rx="1.93617335" ry="1.94736842"></ellipse>
            <ellipse id="Oval-12-Copy-3" fill-opacity="0.300000012" cx="19.1888049" cy="1.94736842" rx="1.93617335" ry="1.94736842"></ellipse>
            <ellipse id="Oval-12-Copy" cx="27.757226" cy="29.8282646" rx="1.93617335" ry="1.94736842"></ellipse>
            <ellipse id="Oval-12-Copy-3" cx="19.1888049" cy="29.8282646" rx="1.93617335" ry="1.94736842"></ellipse>
            <ellipse id="Oval-12-Copy-4" cx="11.0098576" cy="29.8282646" rx="1.93617335" ry="1.94736842"></ellipse>
        </g>
        <g id="Group-20-Copy" transform="translate(0.000000, 41.000000)" fill="#FFFFFF">
            <circle id="Oval-12" fill-opacity="0.599999964" cx="78.5" cy="46.5" r="4.5"></circle>
            <circle id="Oval-12-Copy" fill-opacity="0.599999964" cx="60.5" cy="46.5" r="4.5"></circle>
            <circle id="Oval-12-Copy-3" cx="41.5" cy="46.5" r="4.5"></circle>
            <circle id="Oval-12-Copy-4" fill-opacity="0.599999964" cx="22.5" cy="46.5" r="4.5"></circle>
            <circle id="Oval-12-Copy-5" cx="4.5" cy="46.5" r="4.5"></circle>
            <circle id="Oval-12-Copy" fill-opacity="0.300000012" cx="60.5" cy="25.5" r="4.5"></circle>
            <circle id="Oval-12-Copy-3" fill-opacity="0.300000012" cx="41.5" cy="25.5" r="4.5"></circle>
            <circle id="Oval-12-Copy-4" fill-opacity="0.300000012" cx="22.5" cy="25.5" r="4.5"></circle>
            <circle id="Oval-12-Copy-3" fill-opacity="0.300000012" cx="41.5" cy="87.5" r="4.5"></circle>
            <circle id="Oval-12-Copy-3" fill-opacity="0.300000012" cx="41.5" cy="4.5" r="4.5"></circle>
            <circle id="Oval-12-Copy" cx="60.5" cy="66.5" r="4.5"></circle>
            <circle id="Oval-12-Copy-3" cx="41.5" cy="66.5" r="4.5"></circle>
            <circle id="Oval-12-Copy-4" cx="22.5" cy="66.5" r="4.5"></circle>
        </g>
        <g id="Group-4" transform="translate(535.000000, 123.500000) scale(-1, 1) translate(-535.000000, -123.500000) translate(486.000000, 70.000000)" fill="#FFFFFF">
            <circle id="Combined-Shape" fill-opacity="0.300000012" transform="translate(90.148785, 53.232189) rotate(121.000000) translate(-90.148785, -53.232189) " cx="90.1487854" cy="53.2321895" r="5"></circle>
            <circle id="Oval-12-Copy" cx="69.953797" cy="53.1028337" r="5"></circle>
            <circle id="Oval-12-Copy-3" cx="47.9571477" cy="53.4867866" r="5"></circle>
            <circle id="Oval-12-Copy-4" fill-opacity="0.300000012" cx="26.9603461" cy="53.8532872" r="5"></circle>
            <circle id="Oval-12-Copy-5" cx="5.96354452" cy="54.2197877" r="5"></circle>
            <circle id="Oval-12-Copy" fill-opacity="0.300000012" cx="69.5349393" cy="29.106489" r="5"></circle>
            <circle id="Oval-12-Copy-3" fill-opacity="0.599999964" cx="47.53829" cy="29.4904419" r="5"></circle>
            <circle id="Oval-12-Copy-4" cx="26.5414884" cy="29.8569425" r="5"></circle>
            <circle id="Oval-12-Copy-3" fill-opacity="0.599999964" cx="47.7950155" cy="101.496928" r="5"></circle>
            <circle id="Oval-12-Copy-3" fill-opacity="0.300000012" cx="48.1192799" cy="5.47664485" r="5"></circle>
            <circle id="Oval-12-Copy" fill-opacity="0.599999964" cx="70.3726548" cy="77.0991784" r="5"></circle>
            <circle id="Oval-12-Copy-3" cx="48.3760055" cy="77.4831313" r="5"></circle>
            <circle id="Oval-12-Copy-4" cx="27.3792039" cy="77.8496318" r="5"></circle>
        </g>
    </g>
</svg>