<svg class="nc-icon glyph" xmlns="http://www.w3.org/2000/svg" xmlns:xlink="http://www.w3.org/1999/xlink" x="0px" y="0px" width="48px" height="48px" viewBox="0 0 48 48"><g>
<path fill="#444444" d="M44.5,3.1c-0.3-0.2-0.7-0.2-1,0L25.7,13H10c-0.6,0-1,0.4-1,1v16c0,0.6,0.4,1,1,1h15.7l17.8,9.9
	C43.7,41,43.8,41,44,41c0.2,0,0.4,0,0.5-0.1c0.3-0.2,0.5-0.5,0.5-0.9V4C45,3.6,44.8,3.3,44.5,3.1z"></path>
<path data-color="color-2" fill="#444444" d="M7,15.3c-2.9,0.9-5,3.5-5,6.7s2.1,5.8,5,6.7V15.3z"></path>
<path data-color="color-2" fill="#444444" d="M23.2,33H12.7l6.5,10.4c0.7,1.1,1.7,1.8,2.9,2c0.3,0.1,0.6,0.1,1,0.1c0.9,0,1.8-0.3,2.5-0.8
	c2.1-1.4,2.7-4.2,1.3-6.3L23.2,33z"></path>
</g></svg>