<svg xmlns="http://www.w3.org/2000/svg" viewBox="0 0 226 30">
  <g fill="none" fill-rule="evenodd">
    <path fill="#FFF" d="M14.68,28.48 C6.8,28.48 0.68,22.88 0.68,14.68 C0.68,6.44 6.8,0.88 14.68,0.88 C20.04,0.88 23.4,3.64 25.36,6.84 L21.4,8.92 C20.12,6.68 17.52,5.04 14.68,5.04 C9.4,5.04 5.48,9.04 5.48,14.68 C5.48,20.24 9.4,24.32 14.68,24.32 C17.52,24.32 20.12,22.64 21.4,20.44 L25.4,22.44 C23.36,25.64 20.04,28.48 14.68,28.48 Z M36.76,28.48 C30.6,28.48 26.84,23.84 26.84,18.32 C26.84,12.76 30.6,8.2 36.76,8.2 C42.92,8.2 46.68,12.76 46.68,18.32 C46.68,23.84 42.92,28.48 36.76,28.48 Z M36.76,24.76 C40.36,24.76 42.32,21.76 42.32,18.32 C42.32,14.92 40.36,11.92 36.76,11.92 C33.2,11.92 31.2,14.92 31.2,18.32 C31.2,21.76 33.2,24.76 36.76,24.76 Z M77.88,28 L73.68,28 L73.68,15.4 C73.68,13.32 72.76,11.92 70.48,11.92 C68.6,11.92 66.84,13.2 66,14.48 L66,28 L61.8,28 L61.8,15.4 C61.8,13.32 60.92,11.92 58.64,11.92 C56.76,11.92 55.04,13.24 54.16,14.48 L54.16,28 L49.96,28 L49.96,8.68 L54.16,8.68 L54.16,11.28 C55,10.12 57.52,8.2 60.48,8.2 C63.36,8.2 65.12,9.64 65.76,11.72 C66.84,10 69.4,8.2 72.32,8.2 C75.84,8.2 77.88,10.12 77.88,14.04 L77.88,28 Z M110.24,28 L106.04,28 L106.04,15.4 C106.04,13.32 105.12,11.92 102.84,11.92 C100.96,11.92 99.2,13.2 98.36,14.48 L98.36,28 L94.16,28 L94.16,15.4 C94.16,13.32 93.28,11.92 91,11.92 C89.12,11.92 87.4,13.24 86.52,14.48 L86.52,28 L82.32,28 L82.32,8.68 L86.52,8.68 L86.52,11.28 C87.36,10.12 89.88,8.2 92.84,8.2 C95.72,8.2 97.48,9.64 98.12,11.72 C99.2,10 101.76,8.2 104.68,8.2 C108.2,8.2 110.24,10.12 110.24,14.04 L110.24,28 Z M123.64,28.48 C117.8,28.48 113.52,24.44 113.52,18.32 C113.52,12.72 117.6,8.2 123.32,8.2 C129.12,8.2 132.8,12.6 132.8,18.68 L132.8,19.72 L117.92,19.72 C118.24,22.6 120.4,25.04 124.04,25.04 C125.96,25.04 128.16,24.28 129.56,22.88 L131.48,25.64 C129.52,27.48 126.68,28.48 123.64,28.48 Z M128.76,16.72 C128.64,14.44 127.08,11.64 123.28,11.64 C119.72,11.64 118.04,14.4 117.88,16.72 L128.76,16.72 Z M140.16,28 L135.96,28 L135.96,8.68 L140.16,8.68 L140.16,11.48 C141.64,9.64 143.96,8.2 146.44,8.2 L146.44,12.36 C146.08,12.28 145.68,12.24 145.16,12.24 C143.36,12.24 141,13.44 140.16,14.84 L140.16,28 Z M157.64,28.48 C151.8,28.48 147.68,24.16 147.68,18.32 C147.68,12.48 151.8,8.2 157.64,8.2 C161.44,8.2 163.68,9.8 165.04,11.64 L162.28,14.16 C161.2,12.64 159.72,11.92 157.84,11.92 C154.36,11.92 152,14.56 152,18.32 C152,22.08 154.36,24.76 157.84,24.76 C159.72,24.76 161.2,23.96 162.28,22.44 L165.04,25.04 C163.68,26.84 161.44,28.48 157.64,28.48 Z M176.72,28.48 C170.88,28.48 166.6,24.44 166.6,18.32 C166.6,12.72 170.68,8.2 176.4,8.2 C182.2,8.2 185.88,12.6 185.88,18.68 L185.88,19.72 L171,19.72 C171.32,22.6 173.48,25.04 177.12,25.04 C179.04,25.04 181.24,24.28 182.64,22.88 L184.56,25.64 C182.6,27.48 179.76,28.48 176.72,28.48 Z M181.84,16.72 C181.72,14.44 180.16,11.64 176.36,11.64 C172.8,11.64 171.12,14.4 170.96,16.72 L181.84,16.72 Z"/>
    <path fill="#007CF6" d="M194.56,28 L189.88,28 L189.88,1.32 L194.56,1.32 L194.56,28 Z M211.72,28.48 C203.72,28.48 198.08,22.64 198.08,14.68 C198.08,6.72 203.72,0.88 211.72,0.88 C219.68,0.88 225.36,6.72 225.36,14.68 C225.36,18.52 224.04,21.84 221.8,24.28 L224,26.76 L220.76,29.48 L218.44,26.88 C216.48,27.92 214.2,28.48 211.72,28.48 Z M211.72,24.32 C213.12,24.32 214.36,24.04 215.48,23.52 L212.16,19.76 L215.44,17.04 L218.76,20.8 C219.92,19.16 220.56,17.04 220.56,14.68 C220.56,9.16 217.08,5.04 211.72,5.04 C206.32,5.04 202.88,9.16 202.88,14.68 C202.88,20.16 206.32,24.32 211.72,24.32 Z"/>
  </g>
</svg>
