<?xml version="1.0" encoding="UTF-8"?>
<svg width="68px" height="52px" viewBox="0 0 68 52" version="1.1" xmlns="http://www.w3.org/2000/svg" xmlns:xlink="http://www.w3.org/1999/xlink">
    <!-- Generator: Sketch 51.2 (57519) - http://www.bohemiancoding.com/sketch -->
    <title>Results_Icon</title>
    <desc>Created with Sketch.</desc>
    <defs>
        <polygon id="path-1" points="0 0.000304721744 67.42995 0.000304721744 67.42995 51.9102 0 51.9102"></polygon>
    </defs>
    <g id="Liz's-New-Stuff" stroke="none" stroke-width="1" fill="none" fill-rule="evenodd">
        <g id="Careers_Page" transform="translate(-767.000000, -2630.000000)">
            <g id="Career-Content-" transform="translate(0.000000, 1624.000000)">
                <g id="Values" transform="translate(160.000000, 307.000000)">
                    <g id="Results" transform="translate(607.000000, 699.000000)">
                        <g id="Results_Icon">
                            <mask id="mask-2" fill="white">
                                <use xlink:href="#path-1"></use>
                            </mask>
                            <g id="Clip-2"></g>
                            <path d="M39.942,51.1602 L48.113,51.1602 L48.113,20.2112 L39.942,20.2112 L39.942,51.1602 Z M48.488,51.9102 L39.567,51.9102 C39.36,51.9102 39.192,51.7422 39.192,51.5352 L39.192,19.8362 C39.192,19.6292 39.36,19.4612 39.567,19.4612 L48.488,19.4612 C48.695,19.4612 48.863,19.6292 48.863,19.8362 L48.863,51.5352 C48.863,51.7422 48.695,51.9102 48.488,51.9102 Z" id="Fill-1" fill="#1B7FEE" mask="url(#mask-2)"></path>
                            <path d="M25.087,51.1602 L33.258,51.1602 L33.258,34.0692 L25.087,34.0692 L25.087,51.1602 Z M33.633,51.9102 L24.712,51.9102 C24.505,51.9102 24.337,51.7422 24.337,51.5352 L24.337,33.6942 C24.337,33.4872 24.505,33.3192 24.712,33.3192 L33.633,33.3192 C33.84,33.3192 34.008,33.4872 34.008,33.6942 L34.008,51.5352 C34.008,51.7422 33.84,51.9102 33.633,51.9102 Z" id="Fill-3" fill="#1B7FEE" mask="url(#mask-2)"></path>
                            <path d="M11.196,51.1602 L19.367,51.1602 L19.367,42.0022 L11.196,42.0022 L11.196,51.1602 Z M19.742,51.9102 L10.821,51.9102 C10.614,51.9102 10.446,51.7422 10.446,51.5352 L10.446,41.6272 C10.446,41.4202 10.614,41.2522 10.821,41.2522 L19.742,41.2522 C19.949,41.2522 20.117,41.4202 20.117,41.6272 L20.117,51.5352 C20.117,51.7422 19.949,51.9102 19.742,51.9102 Z" id="Fill-4" fill="#1B7FEE" mask="url(#mask-2)"></path>
                            <path d="M2.8864,35.2911 C1.2974,35.2911 0.3594,35.1871 0.3304,35.1841 C0.1254,35.1601 -0.0216,34.9741 0.0024,34.7681 C0.0274,34.5621 0.2184,34.4151 0.4184,34.4391 C0.7424,34.4751 32.9654,37.8051 43.0424,0.9411 L34.6024,3.6551 C34.4014,3.7161 34.1944,3.6091 34.1294,3.4131 C34.0674,3.2161 34.1754,3.0041 34.3714,2.9401 L43.4684,0.0171 C43.6574,-0.0389 43.8504,0.0491 43.9264,0.2221 C43.9314,0.2291 43.9354,0.2371 43.9394,0.2441 L48.2994,8.3181 C48.3984,8.5001 48.3294,8.7281 48.1474,8.8261 C47.9674,8.9231 47.7394,8.8571 47.6394,8.6741 L43.6994,1.3801 C38.3474,20.6871 26.9844,28.8631 18.3284,32.3221 C11.9624,34.8661 6.0974,35.2911 2.8864,35.2911" id="Fill-5" fill="#1B7FEE" mask="url(#mask-2)"></path>
                            <path d="M57.8972,34.8018 L57.8822,34.8018 C57.7782,34.7968 57.6792,34.7498 57.6122,34.6698 L55.1992,31.8408 C55.0642,31.6838 55.0832,31.4468 55.2412,31.3128 C55.3982,31.1778 55.6352,31.1978 55.7692,31.3548 L57.9182,33.8748 L66.7902,25.0038 C66.9362,24.8578 67.1742,24.8578 67.3212,25.0038 C67.4662,25.1508 67.4662,25.3888 67.3212,25.5348 L58.1632,34.6928 C58.0912,34.7628 57.9972,34.8018 57.8972,34.8018" id="Fill-6" fill="#1B7FEE" mask="url(#mask-2)"></path>
                        </g>
                    </g>
                </g>
            </g>
        </g>
    </g>
</svg>