<?xml version="1.0" encoding="UTF-8"?>
<svg width="67px" height="66px" viewBox="0 0 67 66" version="1.1" xmlns="http://www.w3.org/2000/svg" xmlns:xlink="http://www.w3.org/1999/xlink">
    <!-- Generator: Sketch 51.2 (57519) - http://www.bohemiancoding.com/sketch -->
    <title>Bias_Icon</title>
    <desc>Created with Sketch.</desc>
    <defs>
        <polygon id="path-1" points="0 0.6615 24.2489913 0.6615 24.2489913 22.7075 0 22.7075"></polygon>
        <polygon id="path-3" points="0.298247201 0.1166 24.548 0.1166 24.548 22.1626 0.298247201 22.1626"></polygon>
        <polygon id="path-5" points="0.580999031 0.994 8.00862974 0.994 8.00862974 59.9864 0.580999031 59.9864"></polygon>
        <polygon id="path-7" points="0.298578571 0.4126 24.548 0.4126 24.548 5.8626 0.298578571 5.8626"></polygon>
    </defs>
    <g id="Liz's-New-Stuff" stroke="none" stroke-width="1" fill="none" fill-rule="evenodd">
        <g id="Careers_Page" transform="translate(-160.000000, -2183.000000)">
            <g id="Career-Content-" transform="translate(0.000000, 1624.000000)">
                <g id="Values" transform="translate(160.000000, 307.000000)">
                    <g id="Bias" transform="translate(0.000000, 251.000000)">
                        <g id="Bias_Icon">
                            <g id="Group-3" transform="translate(0.000000, 20.006300)">
                                <mask id="mask-2" fill="white">
                                    <use xlink:href="#path-1"></use>
                                </mask>
                                <g id="Clip-2"></g>
                                <path d="M1.0211,21.9575 L23.2501,21.9575 L12.5311,1.8125 L1.0211,21.9575 Z M23.8741,22.7075 L0.3751,22.7075 C0.2411,22.7075 0.1181,22.6365 0.0511,22.5205 C-0.0169,22.4055 -0.0169,22.2625 0.0491,22.1465 L12.2171,0.8505 C12.2851,0.7315 12.4301,0.6725 12.5481,0.6615 C12.6851,0.6635 12.8101,0.7395 12.8741,0.8605 L24.2051,22.1565 C24.2671,22.2725 24.2631,22.4125 24.1951,22.5255 C24.1281,22.6385 24.0061,22.7075 23.8741,22.7075 Z" id="Fill-1" fill="#1B7FEE" mask="url(#mask-2)"></path>
                            </g>
                            <g id="Group-6" transform="translate(42.000000, 29.006300)">
                                <mask id="mask-4" fill="white">
                                    <use xlink:href="#path-3"></use>
                                </mask>
                                <g id="Clip-5"></g>
                                <path d="M1.3195,21.4126 L23.5485,21.4126 L12.8295,1.2676 L1.3195,21.4126 Z M24.1735,22.1626 L0.6735,22.1626 C0.5395,22.1626 0.4165,22.0916 0.3495,21.9756 C0.2815,21.8606 0.2815,21.7176 0.3475,21.6016 L12.5155,0.3056 C12.5835,0.1866 12.7295,0.1186 12.8475,0.1166 C12.9835,0.1186 13.1085,0.1946 13.1725,0.3156 L24.5045,21.6116 C24.5665,21.7276 24.5625,21.8676 24.4945,21.9806 C24.4265,22.0936 24.3045,22.1626 24.1735,22.1626 Z" id="Fill-4" fill="#1B7FEE" mask="url(#mask-4)"></path>
                            </g>
                            <g id="Group-9" transform="translate(29.000000, 0.006300)">
                                <mask id="mask-6" fill="white">
                                    <use xlink:href="#path-5"></use>
                                </mask>
                                <g id="Clip-8"></g>
                                <path d="M1.399,9.2344 L4.284,12.1194 L7.19,9.2514 L4.284,2.3384 L1.399,9.2344 Z M4.283,59.9864 C4.076,59.9864 3.908,59.8184 3.908,59.6114 L3.908,12.8034 L0.691,9.5874 C0.584,9.4794 0.551,9.3174 0.61,9.1774 L3.937,1.2244 C3.995,1.0844 4.131,0.9934 4.282,0.9934 L4.283,0.9934 C4.434,0.9934 4.57,1.0844 4.628,1.2234 L7.979,9.1944 C8.039,9.3364 8.006,9.4994 7.897,9.6074 L4.658,12.8044 L4.658,59.6114 C4.658,59.8184 4.49,59.9864 4.283,59.9864 Z" id="Fill-7" fill="#1B7FEE" mask="url(#mask-6)"></path>
                            </g>
                            <path d="M54.7653,29.8911 C53.0703,29.8911 51.4533,29.1681 50.3233,27.9031 L49.6683,27.1691 L16.5123,19.0641 C15.5413,20.3491 14.0763,21.1071 12.4533,21.1551 C10.7273,21.1941 9.1603,20.4551 8.1143,19.1011 L7.3383,18.0961 C7.2113,17.9321 7.2423,17.6961 7.4063,17.5701 C7.5693,17.4431 7.8063,17.4741 7.9323,17.6381 L8.7083,18.6431 C9.6063,19.8061 10.9503,20.4491 12.4313,20.4051 C13.8993,20.3621 15.2173,19.6411 16.0453,18.4291 C16.1333,18.2991 16.2933,18.2381 16.4443,18.2761 L49.9593,26.4681 C50.0333,26.4861 50.1003,26.5261 50.1503,26.5831 L50.8823,27.4031 C51.8813,28.5211 53.3233,29.1591 54.8123,29.1411 C56.3113,29.1271 57.7323,28.4691 58.7103,27.3331 C58.8453,27.1751 59.0823,27.1591 59.2393,27.2931 C59.3963,27.4291 59.4133,27.6651 59.2783,27.8221 C58.1593,29.1211 56.5343,29.8751 54.8193,29.8911 L54.7653,29.8911 Z" id="Fill-10" fill="#1B7FEE"></path>
                            <path d="M25.1588,65.2563 L42.2518,65.2563 L37.7528,59.9933 L29.3278,59.9933 L25.1588,65.2563 Z M43.0658,66.0063 L24.3838,66.0063 C24.2398,66.0063 24.1088,65.9243 24.0458,65.7943 C23.9828,65.6653 23.9998,65.5113 24.0898,65.3983 L28.8528,59.3853 C28.9248,59.2953 29.0328,59.2433 29.1468,59.2433 L37.9258,59.2433 C38.0348,59.2433 38.1388,59.2913 38.2108,59.3743 L43.3508,65.3873 C43.4458,65.4993 43.4678,65.6553 43.4068,65.7883 C43.3448,65.9213 43.2118,66.0063 43.0658,66.0063 Z" id="Fill-12" fill="#1B7FEE"></path>
                            <path d="M1.5704,42.7138 L3.2784,43.9018 C8.5704,47.5848 15.6804,47.5848 20.9714,43.9018 L22.6784,42.7138 L1.5704,42.7138 Z M12.1244,47.4128 C8.8744,47.4128 5.6234,46.4478 2.8494,44.5178 L0.1604,42.6468 C0.0264,42.5528 -0.0316,42.3828 0.0174,42.2268 C0.0664,42.0698 0.2114,41.9638 0.3754,41.9638 L23.8744,41.9638 C24.0384,41.9638 24.1824,42.0698 24.2324,42.2268 C24.2804,42.3828 24.2224,42.5528 24.0884,42.6468 L21.4004,44.5178 C18.6264,46.4478 15.3754,47.4128 12.1244,47.4128 Z" id="Fill-14" fill="#1B7FEE"></path>
                            <g id="Group-18" transform="translate(42.000000, 50.006300)">
                                <mask id="mask-8" fill="white">
                                    <use xlink:href="#path-7"></use>
                                </mask>
                                <g id="Clip-17"></g>
                                <path d="M1.8688,1.1626 L3.5768,2.3506 C8.8688,6.0336 15.9788,6.0336 21.2698,2.3506 L22.9778,1.1626 L1.8688,1.1626 Z M12.4228,5.8626 C9.1728,5.8626 5.9218,4.8966 3.1478,2.9666 L0.4588,1.0956 C0.3248,1.0016 0.2668,0.8316 0.3158,0.6756 C0.3648,0.5186 0.5098,0.4126 0.6738,0.4126 L24.1728,0.4126 C24.3368,0.4126 24.4818,0.5186 24.5308,0.6756 C24.5798,0.8316 24.5218,1.0016 24.3878,1.0956 L21.6988,2.9666 C18.9248,4.8966 15.6738,5.8626 12.4228,5.8626 Z" id="Fill-16" fill="#1B7FEE" mask="url(#mask-8)"></path>
                            </g>
                        </g>
                    </g>
                </g>
            </g>
        </g>
    </g>
</svg>